<?xml version="1.0"?>
<robot name="thrusters">
  <joint name="T0">
    <limit lower="-41.00" upper="51.00"/>
  </joint>

  <joint name="T1">
    <limit lower="-41.00" upper="51.00"/>
  </joint>

  <joint name="T2">
    <limit lower="-41.00" upper="51.00"/>
  </joint>

  <joint name="T3">
    <limit lower="-41.00" upper="51.00"/>
  </joint>

  <joint name="T4">
    <limit lower="-41.00" upper="51.00"/>
  </joint>

  <joint name="T5">
    <limit lower="-41.00" upper="51.00"/>
  </joint>

  <joint name="T6">
    <limit lower="-41.00" upper="51.00"/>
  </joint>

  <joint name="T7">
    <limit lower="-41.00" upper="51.00"/>
  </joint>


</robot>
