<?xml version="1.0" encoding="UTF-8" ?>
<sdf version="1.4">
  <world name="default">
    <scene>
      <ambient>0.5 0.5 0.5 1</ambient>
      <background>0.5 0.5 0.5 1</background>
      <shadows>false</shadows>
    </scene>
    <physics type="ode">
      <gravity>0 0 -9.81</gravity>
      <ode>
        <solver>
          <type>quick</type>
          <iters>10</iters>
          <sor>1.3</sor>
        </solver>
        <constraints>
          <cfm>0.0</cfm>
          <erp>0.2</erp>
          <contact_max_correcting_vel>10</contact_max_correcting_vel>
          <contact_surface_layer>0.001</contact_surface_layer>
        </constraints>
      </ode>
      <max_step_size>0.001</max_step_size>
    </physics>
    <light name="directional_light_1" type="directional">
      <pose>0 20 20 0.1 0.1 0</pose>
      <diffuse>1 1 1 1</diffuse>
      <specular>1 1 1 1</specular>
      <attenuation>
        <range>300</range>
      </attenuation>
      <direction>0.1 0.1 -1</direction>
      <cast_shadows>false</cast_shadows>
    </light>
    <model name="120m_landscape_smooth_tri">
      <link name="120m_landscape_smooth_tri_link">
        <pose>0 0 -10 0 0 0</pose>
        <collision name="120m_landscape_smooth_tri_collision">
          <geometry>
            <mesh>
              <uri>file://120m_landscape_smooth_tri.dae</uri>
              <scale>1 1 1</scale>
            </mesh>
          </geometry>
        </collision>
        <visual name="120m_landscape_smooth_tri">
          <geometry>
            <mesh>
              <uri>file://120m_landscape_smooth_tri.dae</uri>
              <scale>1 1 1</scale>
            </mesh>
          </geometry>
          <cast_shadows>false</cast_shadows>
        </visual>
      </link>
      <static>true</static>
    </model>
    <!-- buoyancy plugin -->
    <plugin filename="libfreefloating_gazebo_fluid.so" name="freefloating_gazebo_fluid">
      <descriptionParam>robot_description</descriptionParam>
      <fluidTopic>current</fluidTopic>
      <alwaysOn>true</alwaysOn>
      <surface>0 0 0</surface>
      <updateRate>.001</updateRate>
    </plugin>
  </world>
</sdf>