<?xml version="1.0" encoding="utf-8"?>
<COLLADA xmlns="http://www.collada.org/2005/11/COLLADASchema" version="1.4.1">
  <asset>
    <contributor>
      <author>Blender User</author>
      <authoring_tool>Blender 2.74.0 commit date:2015-03-31, commit time:13:39, hash:000dfc0</authoring_tool>
    </contributor>
    <created>2015-06-23T17:22:48</created>
    <modified>2015-06-23T17:22:48</modified>
    <unit name="meter" meter="1"/>
    <up_axis>Z_UP</up_axis>
  </asset>
  <library_cameras>
    <camera id="Camera-camera" name="Camera">
      <optics>
        <technique_common>
          <perspective>
            <xfov sid="xfov">49.13434</xfov>
            <aspect_ratio>1.777778</aspect_ratio>
            <znear sid="znear">0.1</znear>
            <zfar sid="zfar">100</zfar>
          </perspective>
        </technique_common>
      </optics>
      <extra>
        <technique profile="blender">
          <YF_dofdist>0</YF_dofdist>
          <shiftx>0</shiftx>
          <shifty>0</shifty>
        </technique>
      </extra>
    </camera>
  </library_cameras>
  <library_lights>
    <light id="Lamp-light" name="Lamp">
      <technique_common>
        <point>
          <color sid="color">1 1 1</color>
          <constant_attenuation>1</constant_attenuation>
          <linear_attenuation>0</linear_attenuation>
          <quadratic_attenuation>0.00111109</quadratic_attenuation>
        </point>
      </technique_common>
      <extra>
        <technique profile="blender">
          <adapt_thresh>0.000999987</adapt_thresh>
          <area_shape>1</area_shape>
          <area_size>0.1</area_size>
          <area_sizey>0.1</area_sizey>
          <area_sizez>1</area_sizez>
          <atm_distance_factor>1</atm_distance_factor>
          <atm_extinction_factor>1</atm_extinction_factor>
          <atm_turbidity>2</atm_turbidity>
          <att1>0</att1>
          <att2>1</att2>
          <backscattered_light>1</backscattered_light>
          <bias>1</bias>
          <blue>1</blue>
          <buffers>1</buffers>
          <bufflag>0</bufflag>
          <bufsize>2880</bufsize>
          <buftype>2</buftype>
          <clipend>30.002</clipend>
          <clipsta>1.000799</clipsta>
          <compressthresh>0.04999995</compressthresh>
          <dist sid="blender_dist">29.99998</dist>
          <energy sid="blender_energy">1</energy>
          <falloff_type>2</falloff_type>
          <filtertype>0</filtertype>
          <flag>0</flag>
          <gamma sid="blender_gamma">1</gamma>
          <green>1</green>
          <halo_intensity sid="blnder_halo_intensity">1</halo_intensity>
          <horizon_brightness>1</horizon_brightness>
          <mode>8192</mode>
          <ray_samp>1</ray_samp>
          <ray_samp_method>1</ray_samp_method>
          <ray_samp_type>0</ray_samp_type>
          <ray_sampy>1</ray_sampy>
          <ray_sampz>1</ray_sampz>
          <red>1</red>
          <samp>3</samp>
          <shadhalostep>0</shadhalostep>
          <shadow_b sid="blender_shadow_b">0</shadow_b>
          <shadow_g sid="blender_shadow_g">0</shadow_g>
          <shadow_r sid="blender_shadow_r">0</shadow_r>
          <sky_colorspace>0</sky_colorspace>
          <sky_exposure>1</sky_exposure>
          <skyblendfac>1</skyblendfac>
          <skyblendtype>1</skyblendtype>
          <soft>3</soft>
          <spotblend>0.15</spotblend>
          <spotsize>75</spotsize>
          <spread>1</spread>
          <sun_brightness>1</sun_brightness>
          <sun_effect_type>0</sun_effect_type>
          <sun_intensity>1</sun_intensity>
          <sun_size>1</sun_size>
          <type>0</type>
        </technique>
      </extra>
    </light>
  </library_lights>
  <library_images/>
  <library_effects>
    <effect id="Material_001-effect">
      <profile_COMMON>
        <technique sid="common">
          <phong>
            <emission>
              <color sid="emission">0 0 0 1</color>
            </emission>
            <ambient>
              <color sid="ambient">0 0 0 1</color>
            </ambient>
            <diffuse>
              <color sid="diffuse">0.8 0 0 1</color>
            </diffuse>
            <specular>
              <color sid="specular">0.5 0.5 0.5 1</color>
            </specular>
            <shininess>
              <float sid="shininess">50</float>
            </shininess>
            <index_of_refraction>
              <float sid="index_of_refraction">1</float>
            </index_of_refraction>
          </phong>
        </technique>
      </profile_COMMON>
    </effect>
  </library_effects>
  <library_materials>
    <material id="Material_001-material" name="Material_001">
      <instance_effect url="#Material_001-effect"/>
    </material>
  </library_materials>
  <library_geometries>
    <geometry id="Sphere-mesh" name="Sphere">
      <mesh>
        <source id="Sphere-mesh-positions">
          <float_array id="Sphere-mesh-positions-array" count="1446">-0.02243536 0 0.1127903 -0.04400855 0 0.1062461 -0.06389057 0 0.09561896 -0.08131724 0 0.08131724 -0.09561902 0 0.06389057 -0.1062461 0 0.04400855 -0.1127903 0 0.02243536 -0.115 0 0 -0.1127903 0 -0.02243536 -0.1062461 0 -0.04400855 -0.09561902 0 -0.06389057 -0.08131724 0 -0.08131724 -0.06389057 0 -0.09561902 -0.04400855 0 -0.1062461 -0.0224353 0 -0.1127903 -0.02200424 0.004376888 0.1127903 -0.04316294 0.008585631 0.1062461 -0.06266289 0.0124644 0.09561896 -0.07975476 0.01586419 0.08131724 -0.0937817 0.01865434 0.06389057 -0.1042046 0.02072757 0.04400855 -0.1106231 0.0220043 0.02243536 -0.1127903 0.02243536 0 -0.1106231 0.0220043 -0.02243536 -0.1042046 0.02072757 -0.04400855 -0.0937817 0.01865434 -0.06389057 -0.07975476 0.01586419 -0.08131724 -0.06266289 0.0124644 -0.09561902 -0.04316294 0.008585631 -0.1062461 -0.02200424 0.004376888 -0.1127903 -0.02072757 0.008585631 0.1127903 -0.04065859 0.01684135 0.1062461 -0.05902719 0.02444988 0.09561896 -0.07512736 0.03111875 0.08131724 -0.0883404 0.03659182 0.06389057 -0.09815859 0.04065865 0.04400855 -0.1042046 0.04316294 0.02243536 -0.1062461 0.04400861 0 -0.1042046 0.043163 -0.02243536 -0.09815859 0.04065865 -0.04400855 -0.0883404 0.03659182 -0.06389057 -0.07512736 0.03111875 -0.08131724 -0.05902713 0.02444982 -0.09561902 -0.04065859 0.01684135 -0.1062461 -0.02072751 0.008585631 -0.1127903 -0.01865428 0.0124644 0.1127903 -0.03659176 0.02444988 0.1062461 -0.05312305 0.03549569 0.09561896 -0.06761282 0.04517745 0.08131724 -0.07950425 0.05312305 0.06389057 -0.0883404 0.05902719 0.04400855 -0.0937817 0.06266295 0.02243536 -0.09561896 0.06389057 0 -0.0937817 0.06266295 -0.02243536 -0.0883404 0.05902719 -0.04400855 -0.07950425 0.05312305 -0.06389057 -0.06761282 0.04517745 -0.08131724 -0.05312305 0.03549569 -0.09561902 -0.03659176 0.02444982 -0.1062461 -0.01865428 0.0124644 -0.1127903 -0.01586419 0.01586419 0.1127903 -0.03111875 0.03111875 0.1062461 -0.0451774 0.04517745 0.09561896 -0.05749994 0.0575 0.08131724 -0.06761282 0.06761288 0.06389057 -0.0751273 0.07512736 0.04400855 -0.07975476 0.07975476 0.02243536 -0.08131724 0.0813173 0 -0.07975476 0.07975476 -0.02243536 -0.0751273 0.07512736 -0.04400855 -0.06761282 0.06761288 -0.06389057 -0.05749994 0.0575 -0.08131724 -0.0451774 0.04517745 -0.09561902 -0.03111875 0.03111875 -0.1062461 -0.01586413 0.01586419 -0.1127903 -0.0124644 0.01865434 0.1127903 -0.02444982 0.03659182 0.1062461 -0.03549563 0.05312305 0.09561896 -0.0451774 0.06761288 0.08131724 -0.05312305 0.07950431 0.06389057 -0.05902713 0.08834046 0.04400855 -0.06266289 0.0937817 0.02243536 -0.06389051 0.09561902 0 -0.06266289 0.0937817 -0.02243536 -0.05902713 0.08834046 -0.04400855 -0.05312305 0.07950431 -0.06389057 -0.0451774 0.06761288 -0.08131724 -0.03549563 0.05312305 -0.09561902 -0.02444982 0.03659182 -0.1062461 -0.01246434 0.01865434 -0.1127903 -0.008585572 0.02072757 0.1127903 -0.01684129 0.04065865 0.1062461 -0.02444982 0.05902719 0.09561896 -0.03111875 0.07512736 0.08131724 -0.03659176 0.08834046 0.06389057 -0.04065859 0.09815865 0.04400855 -0.04316294 0.1042047 0.02243536 -0.04400855 0.1062461 0 -0.04316294 0.1042047 -0.02243536 -0.04065859 0.09815865 -0.04400855 -0.03659176 0.08834046 -0.06389057 -0.03111875 0.07512736 -0.08131724 -0.02444982 0.05902719 -0.09561902 -0.01684129 0.04065865 -0.1062461 -0.008585572 0.02072757 -0.1127903 -0.004376888 0.0220043 0.1127903 -0.008585572 0.043163 0.1062461 -0.01246434 0.06266295 0.09561896 -0.01586413 0.07975476 0.08131724 -0.01865428 0.0937817 0.06389057 -0.02072751 0.1042047 0.04400855 -0.02200424 0.1106231 0.02243536 -0.0224353 0.1127903 0 -0.02200424 0.1106231 -0.02243536 -0.02072751 0.1042047 -0.04400855 -0.01865428 0.0937817 -0.06389057 -0.01586413 0.07975476 -0.08131724 -0.01246434 0.06266295 -0.09561902 -0.008585572 0.04316294 -0.1062461 -0.004376888 0.0220043 -0.1127903 0 0.02243542 0.1127903 0 0.04400861 0.1062461 0 0.06389057 0.09561896 0 0.0813173 0.08131724 0 0.09561902 0.06389057 0 0.1062461 0.04400855 0 0.1127903 0.02243536 0 0.115 0 0 0.1127903 -0.02243536 0 0.1062461 -0.04400855 0 0.09561902 -0.06389057 0 0.0813173 -0.08131724 0 0.06389057 -0.09561902 0 0.04400855 -0.1062461 0 0.02243536 -0.1127903 0.004376947 0.0220043 0.1127903 0.008585691 0.043163 0.1062461 0.01246446 0.06266295 0.09561896 0.01586425 0.07975476 0.08131724 0.01865434 0.0937817 0.06389057 0.02072763 0.1042046 0.04400855 0.0220043 0.1106231 0.02243536 0.02243542 0.1127903 0 0.0220043 0.1106231 -0.02243536 0.02072763 0.1042047 -0.04400855 0.01865434 0.0937817 -0.06389057 0.01586425 0.07975476 -0.08131724 0.01246446 0.06266295 -0.09561902 0.008585691 0.04316294 -0.1062461 0.004376947 0.0220043 -0.1127903 0.008585691 0.02072757 0.1127903 0.01684141 0.04065865 0.1062461 0.02444988 0.05902719 0.09561896 0.03111881 0.07512736 0.08131724 0.03659182 0.08834046 0.06389057 0.04065865 0.09815859 0.04400855 0.043163 0.1042047 0.02243536 0.04400861 0.1062461 0 0.043163 0.1042047 -0.02243536 0.04065865 0.09815865 -0.04400855 0.03659182 0.08834046 -0.06389057 0.03111881 0.07512736 -0.08131724 0.02444988 0.05902719 -0.09561902 0.01684135 0.04065859 -0.1062461 0.008585691 0.02072757 -0.1127903 0.01246446 0.01865434 0.1127903 0.02444988 0.03659182 0.1062461 0.03549569 0.05312305 0.09561896 0.04517745 0.06761282 0.08131724 0.05312311 0.07950431 0.06389057 0.05902719 0.0883404 0.04400855 0.06266295 0.0937817 0.02243536 0.06389057 0.09561896 0 0.06266295 0.0937817 -0.02243536 0.05902719 0.08834046 -0.04400855 0.05312311 0.07950431 -0.06389057 0.04517745 0.06761282 -0.08131724 0.03549575 0.05312305 -0.09561902 0.02444988 0.03659176 -0.1062461 0.01246446 0.01865434 -0.1127903 0.01586425 0.01586419 0.1127903 0.03111881 0.03111875 0.1062461 0.04517745 0.04517745 0.09561896 0.0575 0.0575 0.08131724 0.06761288 0.06761282 0.06389057 0.07512736 0.07512736 0.04400855 0.07975482 0.07975476 0.02243536 0.0813173 0.08131724 0 0.07975482 0.07975476 -0.02243536 0.07512736 0.07512736 -0.04400855 0.06761288 0.06761282 -0.06389057 0.0575 0.0575 -0.08131724 0.04517745 0.04517745 -0.09561902 0.03111881 0.03111875 -0.1062461 0.01586425 0.01586419 -0.1127903 0.0186544 0.0124644 0.1127903 0.03659182 0.02444982 0.1062461 0.05312311 0.03549569 0.09561896 0.06761288 0.04517745 0.08131724 0.07950431 0.05312305 0.06389057 0.08834046 0.05902719 0.04400855 0.0937817 0.06266289 0.02243536 0.09561902 0.06389051 0 0.0937817 0.06266289 -0.02243536 0.08834046 0.05902719 -0.04400855 0.07950431 0.05312305 -0.06389057 0.06761288 0.04517745 -0.08131724 0.05312311 0.03549569 -0.09561902 0.03659182 0.02444982 -0.1062461 0.01865434 0.0124644 -0.1127903 0.02072763 0.008585631 0.1127903 0.04065865 0.01684135 0.1062461 0.05902719 0.02444982 0.09561896 0.07512742 0.03111875 0.08131724 0.08834046 0.03659176 0.06389057 0.09815865 0.04065859 0.04400855 0.1042047 0.04316294 0.02243536 0.1062461 0.04400855 0 0.1042047 0.04316294 -0.02243536 0.09815865 0.04065859 -0.04400855 0.08834046 0.03659176 -0.06389057 0.07512742 0.03111875 -0.08131724 0.05902719 0.02444982 -0.09561902 0.04065865 0.01684135 -0.1062461 0.02072763 0.008585631 -0.1127903 0.02200436 0.004376888 0.1127903 0.043163 0.008585631 0.1062461 0.06266295 0.0124644 0.09561896 0.07975482 0.01586419 0.08131724 0.09378176 0.01865434 0.06389057 0.1042047 0.02072757 0.04400855 0.1106231 0.02200424 0.02243536 0.1127903 0.02243536 0 0.1106231 0.02200424 -0.02243536 0.1042047 0.02072757 -0.04400855 0.09378176 0.01865434 -0.06389057 0.07975482 0.01586419 -0.08131724 0.06266295 0.0124644 -0.09561902 0.043163 0.008585631 -0.1062461 0.0220043 0.004376888 -0.1127903 0.02243542 0 0.1127903 0.04400861 0 0.1062461 0.06389057 0 0.09561896 0.0813173 0 0.08131724 0.09561902 0 0.06389057 0.1062461 0 0.04400855 0.1127903 0 0.02243536 0.115 0 0 0.1127903 0 -0.02243536 0.1062461 0 -0.04400855 0.09561902 0 -0.06389057 0.0813173 0 -0.08131724 0.06389057 0 -0.09561902 0.04400861 0 -0.1062461 0.02243542 0 -0.1127903 0.02200436 -0.004376888 0.1127903 0.043163 -0.008585631 0.1062461 0.06266295 -0.0124644 0.09561896 0.07975482 -0.01586419 0.08131724 0.0937817 -0.01865434 0.06389057 0.1042047 -0.02072757 0.04400855 0.1106231 -0.02200424 0.02243536 0.1127903 -0.02243536 0 0.1106231 -0.02200424 -0.02243536 0.1042047 -0.02072757 -0.04400855 0.0937817 -0.01865434 -0.06389057 0.07975482 -0.01586419 -0.08131724 0.06266295 -0.0124644 -0.09561902 0.043163 -0.008585631 -0.1062461 0.0220043 -0.004376888 -0.1127903 0.02072763 -0.008585631 0.1127903 0.04065865 -0.01684135 0.1062461 0.05902719 -0.02444982 0.09561896 0.07512736 -0.03111875 0.08131724 0.08834046 -0.03659176 0.06389057 0.09815859 -0.04065859 0.04400855 0.1042047 -0.04316294 0.02243536 0.1062461 -0.04400855 0 0.1042047 -0.04316294 -0.02243536 0.09815865 -0.04065859 -0.04400855 0.08834046 -0.03659176 -0.06389057 0.07512736 -0.03111875 -0.08131724 0.05902719 -0.02444982 -0.09561902 0.04065865 -0.01684135 -0.1062461 0.02072763 -0.008585631 -0.1127903 0.01865434 -0.0124644 0.1127903 0.03659182 -0.02444988 0.1062461 0.05312305 -0.03549569 0.09561896 0.06761282 -0.04517745 0.08131724 0.07950431 -0.05312305 0.06389057 0.0883404 -0.05902713 0.04400855 0.0937817 -0.06266289 0.02243536 0.09561896 -0.06389051 0 0.0937817 -0.06266289 -0.02243536 0.08834046 -0.05902713 -0.04400855 0.07950431 -0.05312305 -0.06389057 0.06761282 -0.04517745 -0.08131724 0.05312305 -0.03549569 -0.09561902 0.03659182 -0.02444982 -0.1062461 0.01865434 -0.0124644 -0.1127903 0.01586425 -0.01586419 0.1127903 0.03111881 -0.03111875 0.1062461 0.04517745 -0.04517745 0.09561896 0.0575 -0.05749994 0.08131724 0.06761288 -0.06761282 0.06389057 0.07512736 -0.0751273 0.04400855 0.07975476 -0.07975476 0.02243536 0.08131724 -0.08131724 0 0.07975476 -0.07975476 -0.02243536 0.07512736 -0.0751273 -0.04400855 0.06761288 -0.06761282 -0.06389057 0.0575 -0.05749994 -0.08131724 0.04517745 -0.04517745 -0.09561902 0.03111881 -0.03111875 -0.1062461 0.01586425 -0.01586419 -0.1127903 0.01246446 -0.01865434 0.1127903 0.02444988 -0.03659182 0.1062461 0.03549569 -0.05312305 0.09561896 0.04517745 -0.06761282 0.08131724 0.05312305 -0.07950425 0.06389057 0.05902719 -0.0883404 0.04400855 0.06266295 -0.09378165 0.02243536 0.06389057 -0.09561896 0 0.06266295 -0.09378165 -0.02243536 0.05902719 -0.0883404 -0.04400855 0.05312305 -0.07950425 -0.06389057 0.04517745 -0.06761282 -0.08131724 0.03549569 -0.05312305 -0.09561902 0.02444988 -0.03659176 -0.1062461 0.01246446 -0.01865434 -0.1127903 0 0 -0.115 0.008585691 -0.02072757 0.1127903 0.01684135 -0.04065865 0.1062461 0.02444988 -0.05902713 0.09561896 0.03111875 -0.07512736 0.08131724 0.03659182 -0.0883404 0.06389057 0.04065865 -0.09815859 0.04400855 0.043163 -0.1042046 0.02243536 0.04400855 -0.1062461 0 0.043163 -0.1042046 -0.02243536 0.04065865 -0.09815859 -0.04400855 0.03659182 -0.0883404 -0.06389057 0.03111875 -0.07512736 -0.08131724 0.02444982 -0.05902713 -0.09561902 0.01684135 -0.04065859 -0.1062461 0.008585631 -0.02072757 -0.1127903 0.004376947 -0.0220043 0.1127903 0.008585631 -0.04316294 0.1062461 0.01246446 -0.06266289 0.09561896 0.01586419 -0.07975476 0.08131724 0.01865434 -0.0937817 0.06389057 0.02072757 -0.1042046 0.04400855 0.0220043 -0.110623 0.02243536 0.02243536 -0.1127902 0 0.0220043 -0.110623 -0.02243536 0.02072757 -0.1042046 -0.04400855 0.01865434 -0.0937817 -0.06389057 0.01586419 -0.07975476 -0.08131724 0.0124644 -0.06266289 -0.09561902 0.008585631 -0.04316294 -0.1062461 0.004376947 -0.02200424 -0.1127903 0 -0.02243536 0.1127903 0 -0.04400855 0.1062461 0 -0.06389051 0.09561896 0 -0.08131724 0.08131724 0 -0.09561896 0.06389057 0 -0.1062461 0.04400855 0 -0.1127902 0.02243536 0 -0.1149999 0 0 -0.1127902 -0.02243536 0 -0.1062461 -0.04400855 0 -0.09561896 -0.06389057 0 -0.08131724 -0.08131724 0 -0.06389051 -0.09561902 0 -0.04400855 -0.1062461 0 -0.02243536 -0.1127903 -0.004376888 -0.0220043 0.1127903 -0.008585572 -0.04316294 0.1062461 -0.0124644 -0.06266289 0.09561896 -0.01586419 -0.07975471 0.08131724 -0.01865428 -0.0937817 0.06389057 -0.02072751 -0.1042046 0.04400855 -0.02200424 -0.110623 0.02243536 -0.0224353 -0.1127902 0 -0.02200424 -0.110623 -0.02243536 -0.02072751 -0.1042046 -0.04400855 -0.01865428 -0.0937817 -0.06389057 -0.01586419 -0.07975471 -0.08131724 -0.0124644 -0.06266289 -0.09561902 -0.008585572 -0.04316294 -0.1062461 -0.004376888 -0.02200424 -0.1127903 -0.008585572 -0.02072757 0.1127903 -0.01684129 -0.04065859 0.1062461 -0.02444982 -0.05902713 0.09561896 -0.03111875 -0.0751273 0.08131724 -0.03659176 -0.0883404 0.06389057 -0.04065859 -0.09815853 0.04400855 -0.04316294 -0.1042046 0.02243536 -0.04400855 -0.1062461 0 -0.04316294 -0.1042046 -0.02243536 -0.04065859 -0.09815859 -0.04400855 -0.03659176 -0.0883404 -0.06389057 -0.03111875 -0.0751273 -0.08131724 -0.02444982 -0.05902713 -0.09561902 -0.01684129 -0.04065859 -0.1062461 -0.008585572 -0.02072757 -0.1127903 -0.0124644 -0.01865434 0.1127903 -0.02444982 -0.03659176 0.1062461 -0.03549563 -0.05312305 0.09561896 -0.0451774 -0.06761276 0.08131724 -0.05312299 -0.07950425 0.06389057 -0.05902713 -0.08834034 0.04400855 -0.06266289 -0.09378165 0.02243536 -0.06389051 -0.0956189 0 -0.06266289 -0.09378165 -0.02243536 -0.05902713 -0.0883404 -0.04400855 -0.05312299 -0.07950425 -0.06389057 -0.0451774 -0.06761276 -0.08131724 -0.03549563 -0.05312299 -0.09561902 -0.02444982 -0.03659176 -0.1062461 -0.01246434 -0.01865428 -0.1127903 -0.01586419 -0.01586419 0.1127903 -0.03111875 -0.03111875 0.1062461 -0.0451774 -0.0451774 0.09561896 -0.05749994 -0.05749994 0.08131724 -0.06761276 -0.06761282 0.06389057 -0.0751273 -0.0751273 0.04400855 -0.07975471 -0.07975471 0.02243536 -0.08131718 -0.08131718 0 -0.07975471 -0.07975471 -0.02243536 -0.0751273 -0.0751273 -0.04400855 -0.06761276 -0.06761282 -0.06389057 -0.05749994 -0.05749994 -0.08131724 -0.0451774 -0.0451774 -0.09561902 -0.03111869 -0.03111875 -0.1062461 -0.01586413 -0.01586419 -0.1127903 -0.01865428 -0.0124644 0.1127903 -0.03659176 -0.02444982 0.1062461 -0.05312299 -0.03549563 0.09561896 -0.06761276 -0.0451774 0.08131724 -0.07950425 -0.05312305 0.06389057 -0.08834034 -0.05902713 0.04400855 -0.09378165 -0.06266289 0.02243536 -0.0956189 -0.06389051 0 -0.09378165 -0.06266289 -0.02243536 -0.08834034 -0.05902713 -0.04400855 -0.07950425 -0.05312305 -0.06389057 -0.06761276 -0.0451774 -0.08131724 -0.05312299 -0.03549563 -0.09561902 -0.0365917 -0.02444982 -0.1062461 -0.01865428 -0.0124644 -0.1127903 0 0 0.115 -0.02072757 -0.008585631 0.1127903 -0.04065859 -0.01684129 0.1062461 -0.05902713 -0.02444982 0.09561896 -0.0751273 -0.03111869 0.08131724 -0.0883404 -0.03659176 0.06389057 -0.09815853 -0.04065859 0.04400855 -0.1042045 -0.04316294 0.02243536 -0.106246 -0.04400855 0 -0.1042045 -0.04316294 -0.02243536 -0.09815853 -0.04065859 -0.04400855 -0.0883404 -0.03659176 -0.06389057 -0.0751273 -0.03111869 -0.08131724 -0.05902713 -0.02444982 -0.09561902 -0.04065859 -0.01684129 -0.1062461 -0.02072751 -0.008585631 -0.1127903 -0.02200424 -0.004376888 0.1127903 -0.04316294 -0.008585631 0.1062461 -0.06266283 -0.0124644 0.09561896 -0.07975471 -0.01586413 0.08131724 -0.09378165 -0.01865428 0.06389057 -0.1042045 -0.02072751 0.04400855 -0.110623 -0.02200424 0.02243536 -0.1127902 -0.02243536 0 -0.110623 -0.02200424 -0.02243536 -0.1042045 -0.02072751 -0.04400855 -0.09378165 -0.01865428 -0.06389057 -0.07975471 -0.01586413 -0.08131724 -0.06266283 -0.01246434 -0.09561902 -0.04316288 -0.008585631 -0.1062461 -0.02200424 -0.004376888 -0.1127903</float_array>
          <technique_common>
            <accessor source="#Sphere-mesh-positions-array" count="482" stride="3">
              <param name="X" type="float"/>
              <param name="Y" type="float"/>
              <param name="Z" type="float"/>
            </accessor>
          </technique_common>
        </source>
        <source id="Sphere-mesh-normals">
          <float_array id="Sphere-mesh-normals-array" count="2880">-0.4708893 0.04637861 0.8809723 -0.4708894 0.04637849 -0.8809723 -0.7707798 0.07591539 -0.6325625 -0.952718 0.09383469 -0.2890041 -0.9904383 0.09754985 0.09754991 -0.8786131 0.08653604 0.469628 -0.6331585 0.06236058 0.771506 -0.2901659 0.02857887 -0.9565496 -0.2901663 0.02857887 0.9565494 -0.6331585 0.0623607 -0.771506 -0.8786131 0.08653604 -0.469628 -0.9904384 0.09754961 -0.09754955 -0.952718 0.09383475 0.2890042 -0.7707799 0.07591527 0.6325625 -0.9523764 0.2889003 -0.09754961 -0.9161055 0.277898 0.2890046 -0.7411593 0.2248281 0.6325624 -0.4527932 0.1373534 0.8809723 -0.4527934 0.1373533 -0.8809723 -0.7411593 0.2248281 -0.6325625 -0.9161056 0.2778977 -0.2890042 -0.9523764 0.2889 0.09754991 -0.8448486 0.2562819 0.4696281 -0.6088266 0.1846854 0.771506 -0.279015 0.08463829 -0.9565496 -0.2790153 0.08463841 0.9565494 -0.6088266 0.1846855 -0.7715059 -0.8448484 0.2562823 -0.469628 -0.8777151 0.4691487 -0.09754961 -0.8442876 0.4512814 0.2890045 -0.6830562 0.3651012 0.6325625 -0.4172967 0.2230498 0.8809724 -0.4172967 0.2230498 -0.8809724 -0.6830562 0.3651012 -0.6325625 -0.8442877 0.4512814 -0.2890044 -0.8777149 0.4691488 0.09754967 -0.778617 0.4161795 0.4696277 -0.5610976 0.2999132 0.771506 -0.2571417 0.137445 -0.9565495 -0.257142 0.1374453 0.9565494 -0.5610978 0.2999131 -0.771506 -0.778617 0.4161796 -0.4696276 -0.7693237 0.6313678 -0.09754955 -0.7400243 0.6073224 0.2890045 -0.5987036 0.4913436 0.6325626 -0.3657636 0.3001745 0.8809723 -0.3657636 0.3001745 -0.8809723 -0.5987039 0.4913434 -0.6325625 -0.7400243 0.6073223 -0.2890044 -0.7693236 0.6313677 0.09754979 -0.6824635 0.5600833 0.4696276 -0.4918062 0.4036151 0.771506 -0.2253865 0.18497 -0.9565495 -0.2253869 0.1849702 0.9565494 -0.4918062 0.4036151 -0.771506 -0.6824635 0.5600835 -0.4696274 -0.6313675 0.769324 -0.0975492 -0.6073222 0.7400244 0.2890046 -0.4913435 0.5987038 0.6325625 -0.3001743 0.3657637 0.8809723 -0.3001744 0.3657637 -0.8809723 -0.4913434 0.5987039 -0.6325626 -0.6073223 0.7400243 -0.2890046 -0.6313677 0.7693236 0.09754985 -0.5600832 0.6824637 0.4696276 -0.4036148 0.4918063 0.7715062 -0.1849699 0.2253865 -0.9565495 -0.1849702 0.2253869 0.9565494 -0.4036151 0.4918064 -0.771506 -0.5600833 0.6824637 -0.4696274 -0.4691482 0.8777152 -0.09754908 -0.4512811 0.8442878 0.2890046 -0.3651008 0.6830562 0.6325627 -0.2230497 0.4172968 0.8809723 -0.2230497 0.4172968 -0.8809723 -0.3651012 0.6830562 -0.6325626 -0.4512811 0.8442878 -0.2890043 -0.4691485 0.877715 0.09754955 -0.4161797 0.7786172 0.4696274 -0.2999128 0.5610978 0.771506 -0.137445 0.2571417 -0.9565496 -0.1374452 0.2571421 0.9565494 -0.2999128 0.5610979 -0.771506 -0.4161797 0.7786172 -0.4696274 -0.2889 0.9523765 -0.09754914 -0.2778977 0.9161055 0.2890043 -0.2248277 0.741159 0.6325628 -0.1373534 0.4527934 0.8809723 -0.1373531 0.4527934 -0.8809723 -0.224828 0.7411591 -0.6325627 -0.2778974 0.9161058 -0.2890042 -0.2889 0.9523764 0.09754937 -0.2562819 0.8448488 0.4696276 -0.1846852 0.6088266 0.771506 -0.08463823 0.279015 -0.9565495 -0.08463829 0.2790154 0.9565494 -0.1846852 0.6088268 -0.771506 -0.2562822 0.8448489 -0.4696274 -0.09754931 0.9904385 -0.09754902 -0.0938341 0.952718 0.2890045 -0.07591521 0.7707797 0.6325628 -0.04637861 0.4708894 0.8809723 -0.04637825 0.4708894 -0.8809723 -0.07591503 0.7707797 -0.6325628 -0.0938344 0.9527181 -0.2890041 -0.09754955 0.9904384 0.09754949 -0.08653575 0.8786135 0.4696273 -0.06236064 0.6331585 0.771506 -0.02857875 0.2901659 -0.9565495 -0.02857887 0.2901663 0.9565494 -0.0623607 0.6331587 -0.7715058 -0.08653581 0.8786134 -0.4696276 0.09754967 0.9904384 -0.09754925 0.09383481 0.952718 0.2890044 0.07591527 0.7707797 0.6325626 0.04637861 0.4708895 0.8809723 0.04637855 0.4708894 -0.8809723 0.07591539 0.7707797 -0.6325628 0.09383475 0.9527181 -0.2890042 0.09754985 0.9904384 0.09754943 0.0865361 0.8786135 0.4696273 0.06236064 0.6331585 0.771506 0.02857887 0.2901659 -0.9565495 0.02857887 0.2901663 0.9565494 0.0623607 0.6331585 -0.771506 0.0865361 0.8786134 -0.4696276 0.2889003 0.9523763 -0.09754937 0.2778977 0.9161055 0.2890043 0.2248281 0.7411592 0.6325627 0.1373534 0.4527935 0.8809723 0.1373533 0.4527934 -0.8809723 0.224828 0.7411591 -0.6325627 0.2778978 0.9161056 -0.2890041 0.2889004 0.9523763 0.09754979 0.256282 0.8448491 0.469627 0.1846856 0.6088264 0.771506 0.08463835 0.279015 -0.9565495 0.08463841 0.2790154 0.9565495 0.1846855 0.6088266 -0.771506 0.2562822 0.8448488 -0.4696274 0.4691488 0.8777149 -0.09754931 0.4512811 0.8442878 0.2890042 0.3651013 0.6830562 0.6325626 0.2230499 0.4172968 0.8809723 0.2230499 0.4172967 -0.8809723 0.3651015 0.6830559 -0.6325627 0.4512815 0.8442877 -0.2890037 0.4691485 0.877715 0.09754991 0.41618 0.778617 0.4696274 0.2999131 0.5610976 0.771506 0.1374452 0.2571417 -0.9565495 0.1374453 0.257142 0.9565494 0.2999132 0.5610978 -0.7715059 0.4161795 0.7786173 -0.4696273 0.6313679 0.7693235 -0.09754931 0.6073225 0.7400245 0.289004 0.4913436 0.5987037 0.6325626 0.3001747 0.3657637 0.8809723 0.3001747 0.3657636 -0.8809723 0.4913435 0.5987037 -0.6325626 0.6073226 0.7400244 -0.2890035 0.6313679 0.7693235 0.09754955 0.5600835 0.6824637 0.4696274 0.4036151 0.4918062 0.771506 0.1849701 0.2253866 -0.9565495 0.1849703 0.2253868 0.9565494 0.4036151 0.4918063 -0.771506 0.5600833 0.6824636 -0.4696276 0.769324 0.6313674 -0.0975492 0.7400245 0.6073223 0.289004 0.5987039 0.4913434 0.6325625 0.3657638 0.3001745 0.8809722 0.3657638 0.3001744 -0.8809723 0.598704 0.4913432 -0.6325626 0.7400247 0.6073223 -0.2890037 0.7693236 0.6313677 0.09754967 0.6824638 0.5600832 0.4696276 0.4918063 0.4036148 0.771506 0.2253867 0.1849699 -0.9565495 0.2253869 0.1849702 0.9565495 0.4918064 0.4036149 -0.771506 0.6824638 0.5600832 -0.4696276 0.8777152 0.4691483 -0.09754914 0.8442879 0.4512808 0.2890041 0.6830564 0.3651009 0.6325625 0.417297 0.2230498 0.8809722 0.4172969 0.2230496 -0.8809723 0.6830563 0.365101 -0.6325625 0.8442878 0.4512813 -0.2890039 0.8777151 0.4691485 0.09754931 0.7786173 0.4161794 0.4696273 0.5610978 0.2999127 0.771506 0.2571418 0.137445 -0.9565495 0.2571421 0.1374452 0.9565495 0.5610979 0.2999129 -0.771506 0.7786173 0.4161794 -0.4696276 0.9523766 0.2888998 -0.09754884 0.9161055 0.2778974 0.2890046 0.7411594 0.2248278 0.6325625 0.4527937 0.1373533 0.8809722 0.4527935 0.1373533 -0.8809723 0.7411594 0.2248278 -0.6325625 0.9161057 0.2778975 -0.289004 0.9523764 0.2889001 0.0975492 0.8448489 0.2562817 0.4696274 0.6088266 0.1846853 0.771506 0.2790151 0.08463823 -0.9565495 0.2790154 0.08463835 0.9565495 0.6088268 0.1846852 -0.7715059 0.8448488 0.2562819 -0.4696274 0.9904385 0.09754937 -0.09754902 0.9527179 0.09383445 0.2890047 0.7707799 0.07591491 0.6325626 0.4708897 0.04637825 0.8809722 0.4708896 0.04637825 -0.8809723 0.7707799 0.07591509 -0.6325624 0.9527181 0.0938341 -0.2890037 0.9904385 0.09754925 0.0975489 0.8786135 0.08653575 0.4696274 0.6331585 0.06236028 0.771506 0.290166 0.02857875 -0.9565495 0.2901664 0.02857875 0.9565494 0.6331587 0.06236046 -0.7715058 0.8786134 0.08653581 -0.4696276 0.9904385 -0.09754967 -0.09754925 0.9527179 -0.09383481 0.2890044 0.7707799 -0.07591527 0.6325625 0.4708897 -0.04637867 0.8809722 0.4708895 -0.04637855 -0.8809723 0.7707798 -0.07591539 -0.6325625 0.952718 -0.09383475 -0.2890038 0.9904384 -0.09754991 0.09754908 0.8786136 -0.0865361 0.4696273 0.6331585 -0.06236064 0.771506 0.290166 -0.02857887 -0.9565495 0.2901663 -0.02857899 0.9565494 0.6331586 -0.06236076 -0.7715058 0.8786134 -0.0865361 -0.4696276 0.9523763 -0.2889005 -0.09754925 0.9161054 -0.2778977 0.2890046 0.741159 -0.2248285 0.6325627 0.4527936 -0.1373537 0.8809722 0.4527935 -0.1373537 -0.8809722 0.7411593 -0.2248282 -0.6325625 0.9161056 -0.2778978 -0.2890039 0.9523763 -0.2889004 0.09754931 0.8448491 -0.2562822 0.469627 0.6088266 -0.1846857 0.771506 0.2790151 -0.08463823 -0.9565495 0.2790154 -0.08463847 0.9565494 0.6088267 -0.1846858 -0.7715058 0.8448488 -0.2562822 -0.4696274 0.8777151 -0.4691488 -0.09754931 0.8442876 -0.4512813 0.2890046 0.6830561 -0.3651013 0.6325626 0.4172969 -0.2230501 0.8809722 0.4172969 -0.2230501 -0.8809722 0.6830561 -0.3651013 -0.6325626 0.8442878 -0.4512814 -0.2890038 0.8777151 -0.4691486 0.09754914 0.7786172 -0.4161798 0.4696271 0.5610978 -0.2999132 0.7715059 0.2571417 -0.1374452 -0.9565494 0.257142 -0.1374454 0.9565493 0.5610979 -0.2999134 -0.7715057 0.7786172 -0.4161797 -0.4696273 0.7693234 -0.6313681 -0.09754914 0.7400243 -0.6073223 0.2890046 0.5987033 -0.4913436 0.6325629 0.3657637 -0.3001749 0.8809722 0.3657637 -0.3001749 -0.8809721 0.5987038 -0.4913434 -0.6325626 0.7400243 -0.6073225 -0.2890039 0.7693235 -0.6313679 0.0975489 0.6824639 -0.5600835 0.469627 0.4918063 -0.4036153 0.7715059 0.2253866 -0.1849701 -0.9565495 0.2253869 -0.1849703 0.9565494 0.4918063 -0.4036154 -0.7715058 0.6824635 -0.5600838 -0.4696274 0.6313676 -0.769324 -0.09754866 0.6073222 -0.7400244 0.2890045 0.4913431 -0.5987038 0.6325628 0.3001745 -0.365764 0.8809722 0.3001744 -0.3657642 -0.8809722 0.4913432 -0.5987038 -0.6325628 0.6073223 -0.7400244 -0.2890042 0.6313678 -0.7693238 0.0975489 0.5600834 -0.682464 0.469627 0.403615 -0.4918065 0.7715058 0.18497 -0.2253867 -0.9565494 0.1849703 -0.225387 0.9565495 0.4036151 -0.4918067 -0.7715057 0.5600834 -0.6824638 -0.4696271 0.4691482 -0.8777154 -0.09754848 0.4512811 -0.8442876 0.2890045 0.3651006 -0.6830562 0.632563 0.2230497 -0.4172971 0.8809722 0.2230497 -0.4172971 -0.8809721 0.3651009 -0.6830561 -0.6325627 0.4512811 -0.8442878 -0.2890042 0.4691484 -0.8777152 0.09754872 0.4161795 -0.7786175 0.4696272 0.2999129 -0.561098 0.7715059 0.137445 -0.2571419 -0.9565495 0.1374453 -0.2571421 0.9565494 0.2999128 -0.5610982 -0.7715057 0.4161795 -0.7786174 -0.4696272 0.2889002 -0.9523766 -0.09754884 0.2778975 -0.9161057 0.2890042 0.2248278 -0.7411589 0.632563 0.1373532 -0.4527937 0.8809722 0.1373532 -0.4527937 -0.8809722 0.2248281 -0.741159 -0.6325628 0.2778972 -0.9161058 -0.2890042 0.2888999 -0.9523766 0.09754854 0.2562821 -0.8448489 0.4696272 0.1846852 -0.6088269 0.7715057 0.08463817 -0.2790153 -0.9565495 0.08463829 -0.2790156 0.9565495 0.1846854 -0.6088269 -0.7715057 0.256282 -0.844849 -0.4696272 0.09754937 -0.9904386 -0.09754866 0.09383416 -0.9527179 0.2890044 0.07591491 -0.7707796 0.632563 0.04637843 -0.4708897 0.8809722 0.04637831 -0.4708898 -0.8809722 0.07591503 -0.7707795 -0.6325629 0.09383445 -0.952718 -0.2890039 0.09754961 -0.9904385 0.0975489 0.08653581 -0.8786136 0.4696273 0.0623607 -0.6331587 0.7715058 0.02857881 -0.2901661 -0.9565495 0.02857881 -0.2901664 0.9565494 0.06236046 -0.6331589 -0.7715057 0.08653551 -0.8786137 -0.469627 -0.09754973 -0.9904385 -0.09754896 -0.09383451 -0.9527181 0.2890042 -0.07591563 -0.7707793 0.632563 -0.04637885 -0.4708896 0.8809722 -0.04637885 -0.4708897 -0.8809722 -0.07591539 -0.7707795 -0.6325628 -0.09383475 -0.952718 -0.289004 -0.09754991 -0.9904385 0.09754872 -0.08653616 -0.8786137 0.4696271 -0.0623607 -0.6331588 0.7715058 -0.02857893 -0.2901661 -0.9565495 -0.02857893 -0.2901665 0.9565495 -0.06236106 -0.6331588 -0.7715057 -0.08653587 -0.8786136 -0.4696273 -0.2889006 -0.9523764 -0.0975486 -0.2778981 -0.9161053 0.2890046 -0.2248282 -0.7411589 0.6325631 -0.1373535 -0.4527935 0.8809722 -0.1373537 -0.4527937 -0.8809721 -0.2248281 -0.7411589 -0.632563 -0.2778975 -0.9161057 -0.2890037 -0.2889002 -0.9523764 0.09754902 -0.2562822 -0.8448489 0.4696274 -0.1846857 -0.608827 0.7715057 -0.08463835 -0.2790152 -0.9565495 -0.08463853 -0.2790155 0.9565494 -0.1846857 -0.6088269 -0.7715056 -0.2562826 -0.8448489 -0.469627 -0.4691486 -0.8777152 -0.09754872 -0.4512813 -0.8442875 0.2890046 -0.3651011 -0.6830558 0.6325631 -0.2230501 -0.4172968 0.8809723 -0.2230502 -0.417297 -0.8809721 -0.365101 -0.6830559 -0.632563 -0.4512813 -0.8442876 -0.2890042 -0.4691487 -0.8777151 0.09754872 -0.4161795 -0.7786174 0.469627 -0.2999133 -0.561098 0.7715057 -0.1374452 -0.2571418 -0.9565495 -0.1374455 -0.2571421 0.9565494 -0.2999132 -0.561098 -0.7715057 -0.4161798 -0.7786175 -0.4696269 -0.6313678 -0.7693237 -0.09754866 -0.6073225 -0.7400242 0.2890046 -0.4913436 -0.5987032 0.6325632 -0.3001748 -0.3657636 0.8809723 -0.3001748 -0.3657639 -0.8809722 -0.4913434 -0.5987035 -0.632563 -0.6073225 -0.7400242 -0.2890042 -0.6313679 -0.7693235 0.0975489 -0.5600838 -0.6824638 0.4696269 -0.4036152 -0.4918065 0.7715057 -0.1849702 -0.2253867 -0.9565495 -0.1849703 -0.225387 0.9565495 -0.4036154 -0.4918063 -0.7715058 -0.5600836 -0.6824638 -0.469627 -0.7693241 -0.6313674 -0.09754884 -0.7400245 -0.6073221 0.2890047 -0.5987036 -0.491343 0.6325632 -0.3657639 -0.3001744 0.8809722 -0.3657642 -0.3001745 -0.8809721 -0.5987036 -0.4913431 -0.6325631 -0.7400245 -0.6073224 -0.2890039 -0.7693238 -0.6313678 0.09754836 -0.6824641 -0.5600835 0.4696269 -0.4918066 -0.4036152 0.7715057 -0.2253868 -0.18497 -0.9565495 -0.225387 -0.1849703 0.9565493 -0.4918068 -0.4036151 -0.7715057 -0.6824637 -0.5600836 -0.4696273 -0.8777152 -0.4691486 -0.0975483 -0.8442878 -0.451281 0.2890049 -0.6830559 -0.3651006 0.6325633 -0.417297 -0.2230497 0.8809722 -0.4172973 -0.2230498 -0.880972 -0.6830559 -0.3651009 -0.6325631 -0.8442879 -0.4512812 -0.2890039 -0.8777152 -0.4691484 0.09754842 -0.7786175 -0.4161796 0.4696269 -0.5610983 -0.2999131 0.7715056 -0.2571419 -0.1374452 -0.9565495 -0.2571423 -0.1374453 0.9565494 -0.5610982 -0.2999129 -0.7715057 -0.7786174 -0.4161793 -0.4696272 -0.9523766 -0.2889003 -0.09754836 -0.9161056 -0.2778971 0.289005 -0.7411587 -0.2248277 0.6325634 -0.4527936 -0.1373531 0.8809723 -0.452794 -0.1373532 -0.8809721 -0.7411587 -0.224828 -0.6325632 -0.9161057 -0.2778975 -0.2890041 -0.9523764 -0.2889002 0.09754836 -0.8448492 -0.2562822 0.4696268 -0.6088271 -0.1846855 0.7715055 -0.2790153 -0.08463817 -0.9565495 -0.2790156 -0.08463841 0.9565494 -0.6088271 -0.1846854 -0.7715057 -0.8448492 -0.2562817 -0.4696269 -0.09801256 0.009653329 0.9951384 -0.0980122 0.009653329 -0.9951384 -0.09424567 0.02858912 -0.9951384 -0.09424597 0.02858924 0.9951384 -0.08685731 0.04642617 -0.9951384 -0.08685755 0.04642629 0.9951383 -0.07613104 0.06247913 -0.9951384 -0.07613128 0.06247931 0.9951383 -0.06247907 0.07613104 -0.9951384 -0.06247925 0.07613128 0.9951384 -0.04642617 0.08685731 -0.9951384 -0.04642623 0.08685749 0.9951384 -0.02858906 0.09424567 -0.9951384 -0.02858912 0.09424585 0.9951384 -0.009653329 0.0980122 -0.9951384 -0.009653389 0.09801238 0.9951384 0.009653329 0.0980122 -0.9951384 0.009653389 0.09801232 0.9951384 0.02858912 0.09424567 -0.9951384 0.02858918 0.09424579 0.9951384 0.04642623 0.08685731 -0.9951384 0.04642623 0.08685737 0.9951384 0.06247913 0.07613104 -0.9951384 0.06247919 0.0761311 0.9951384 0.0761311 0.06247907 -0.9951384 0.0761311 0.06247907 0.9951383 0.08685731 0.04642611 -0.9951384 0.08685737 0.04642623 0.9951384 0.09424567 0.02858906 -0.9951384 0.09424573 0.02858906 0.9951383 0.0980122 0.009653329 -0.9951384 0.09801232 0.00965327 0.9951384 0.0980122 -0.009653329 -0.9951384 0.09801232 -0.009653389 0.9951384 0.09424567 -0.02858912 -0.9951384 0.09424579 -0.02858918 0.9951384 0.08685731 -0.04642623 -0.9951384 0.08685737 -0.04642629 0.9951384 0.07613104 -0.06247919 -0.9951384 0.07613116 -0.06247925 0.9951383 0.06247913 -0.0761311 -0.9951384 0.06247925 -0.07613122 0.9951383 0.04642617 -0.08685737 -0.9951384 0.04642629 -0.08685749 0.9951384 0.02858906 -0.09424573 -0.9951384 0.02858912 -0.09424597 0.9951384 0.009653329 -0.09801226 -0.9951384 0.009653329 -0.0980125 0.9951384 -0.009653389 -0.09801226 -0.9951384 -0.009653329 -0.09801256 0.9951383 -0.02858912 -0.09424573 -0.9951384 -0.02858924 -0.09424602 0.9951384 -0.04642623 -0.08685731 -0.9951384 -0.04642641 -0.08685761 0.9951384 -0.06247919 -0.0761311 -0.9951384 -0.06247937 -0.0761314 0.9951383 -0.0761311 -0.06247913 -0.9951384 -0.0761314 -0.06247943 0.9951384 -0.08685737 -0.04642617 -0.9951384 -0.08685767 -0.04642635 0.9951384 -0.09424573 -0.02858912 -0.9951384 -0.09424608 -0.02858918 0.9951383 -0.990438 -0.09755402 -0.09754931 -0.9527173 -0.09383898 0.2890055 -0.7707787 -0.07591897 0.6325635 -0.0980122 -0.009653687 -0.9951384 -0.4708892 -0.04638075 0.8809723 -0.4708894 -0.04638093 -0.8809723 -0.09801256 -0.009653866 0.9951383 -0.7707797 -0.0759173 -0.6325624 -0.9527177 -0.09383773 -0.289004 -0.9904382 -0.09755271 0.0975483 -0.8786136 -0.08653831 0.4696266 -0.6331586 -0.06236338 0.7715057 -0.2901659 -0.02858018 -0.9565496 -0.2901662 -0.0285803 0.9565494 -0.6331583 -0.0623638 -0.7715058 -0.8786128 -0.08653932 -0.4696279 -0.4708893 0.04637849 0.8809724 -0.4708894 0.04637861 -0.8809723 -0.7707799 0.07591527 -0.6325625 -0.9527181 0.09383475 -0.2890042 -0.9904384 0.09754961 0.09754967 -0.8786131 0.08653604 0.4696281 -0.6331585 0.0623607 0.771506 -0.2901658 0.02857887 -0.9565495 -0.2901663 0.02857893 0.9565494 -0.6331585 0.06236064 -0.771506 -0.8786131 0.08653604 -0.4696281 -0.9904383 0.09754985 -0.09754931 -0.9527181 0.09383475 0.2890041 -0.7707798 0.07591533 0.6325625 -0.9523763 0.2889003 -0.09754955 -0.9161056 0.2778974 0.2890041 -0.7411592 0.2248281 0.6325625 -0.4527934 0.1373533 0.8809723 -0.4527934 0.1373534 -0.8809723 -0.7411593 0.2248281 -0.6325624 -0.9161055 0.277898 -0.2890044 -0.9523763 0.2889003 0.09754961 -0.8448486 0.2562824 0.4696277 -0.6088266 0.1846855 0.7715059 -0.279015 0.08463829 -0.9565495 -0.2790153 0.08463841 0.9565495 -0.6088266 0.1846854 -0.771506 -0.8448488 0.2562819 -0.4696276 -0.877715 0.4691486 -0.09754955 -0.8442876 0.4512814 0.2890046 -0.6830562 0.3651013 0.6325625 -0.4172966 0.2230499 0.8809723 -0.4172968 0.2230497 -0.8809723 -0.6830562 0.3651012 -0.6325625 -0.8442877 0.4512813 -0.2890043 -0.877715 0.4691486 0.09754979 -0.778617 0.4161797 0.4696276 -0.5610978 0.2999131 0.771506 -0.2571417 0.137445 -0.9565495 -0.257142 0.1374453 0.9565495 -0.5610977 0.2999132 -0.771506 -0.778617 0.4161795 -0.4696276 -0.7693237 0.6313677 -0.09754961 -0.7400243 0.6073223 0.2890044 -0.5987038 0.4913435 0.6325625 -0.3657636 0.3001745 0.8809723 -0.3657636 0.3001747 -0.8809723 -0.5987036 0.4913436 -0.6325626 -0.7400243 0.6073225 -0.2890043 -0.7693237 0.6313678 0.09754979 -0.6824635 0.5600835 0.4696275 -0.4918062 0.4036151 0.7715061 -0.2253865 0.18497 -0.9565495 -0.2253868 0.1849703 0.9565494 -0.4918064 0.4036151 -0.771506 -0.6824636 0.5600834 -0.4696277 -0.6313678 0.7693237 -0.09754961 -0.6073223 0.7400243 0.2890043 -0.4913434 0.5987039 0.6325626 -0.3001744 0.3657637 0.8809723 -0.3001744 0.3657637 -0.8809723 -0.4913435 0.5987038 -0.6325625 -0.6073222 0.7400245 -0.2890044 -0.6313674 0.7693239 0.09754949 -0.5600832 0.6824637 0.4696275 -0.4036149 0.4918062 0.771506 -0.1849699 0.2253866 -0.9565495 -0.1849702 0.2253869 0.9565495 -0.4036149 0.4918064 -0.771506 -0.5600833 0.6824638 -0.4696275 -0.4691485 0.8777151 -0.09754925 -0.4512812 0.8442876 0.2890045 -0.3651012 0.6830562 0.6325626 -0.2230497 0.4172968 0.8809723 -0.2230495 0.4172968 -0.8809723 -0.3651008 0.6830562 -0.6325627 -0.4512813 0.8442876 -0.2890046 -0.4691483 0.8777153 0.09754925 -0.4161794 0.7786172 0.4696276 -0.2999128 0.5610978 0.7715061 -0.137445 0.2571417 -0.9565496 -0.1374452 0.2571421 0.9565494 -0.2999129 0.5610979 -0.771506 -0.4161796 0.778617 -0.4696275 -0.2889 0.9523764 -0.09754914 -0.2778974 0.9161056 0.2890045 -0.224828 0.7411592 0.6325627 -0.1373531 0.4527934 0.8809723 -0.1373533 0.4527934 -0.8809723 -0.2248277 0.741159 -0.6325629 -0.2778977 0.9161056 -0.2890044 -0.2889 0.9523764 0.09754937 -0.2562822 0.8448488 0.4696274 -0.1846851 0.6088266 0.771506 -0.08463817 0.279015 -0.9565496 -0.08463841 0.2790154 0.9565494 -0.1846853 0.6088268 -0.7715058 -0.2562819 0.8448488 -0.4696276 -0.09754955 0.9904383 -0.0975492 -0.0938344 0.952718 0.2890042 -0.07591503 0.7707796 0.6325628 -0.04637855 0.4708895 0.8809722 -0.04637843 0.4708895 -0.8809723 -0.07591527 0.7707796 -0.6325629 -0.09383445 0.9527181 -0.2890042 -0.09754931 0.9904385 0.09754931 -0.08653551 0.8786135 0.4696276 -0.0623607 0.6331585 0.771506 -0.02857875 0.2901659 -0.9565495 -0.02857893 0.2901663 0.9565494 -0.06236022 0.6331585 -0.7715061 -0.08653575 0.8786134 -0.4696276 0.09754985 0.9904383 -0.09754902 0.09383475 0.9527179 0.2890044 0.07591539 0.7707797 0.6325628 0.04637855 0.4708895 0.8809722 0.04637861 0.4708895 -0.8809723 0.07591527 0.7707797 -0.6325626 0.09383481 0.952718 -0.2890041 0.09754967 0.9904384 0.09754961 0.08653616 0.8786135 0.4696273 0.0623607 0.6331585 0.7715059 0.02857887 0.2901659 -0.9565495 0.02857893 0.2901663 0.9565494 0.06236064 0.6331585 -0.7715059 0.0865361 0.8786134 -0.4696275 0.2889004 0.9523763 -0.09754931 0.2778977 0.9161055 0.2890044 0.224828 0.7411591 0.6325627 0.1373535 0.4527934 0.8809723 0.1373535 0.4527934 -0.8809723 0.2248281 0.7411592 -0.6325626 0.2778977 0.9161056 -0.2890042 0.2889003 0.9523763 0.09754979 0.2562823 0.8448489 0.4696272 0.1846855 0.6088266 0.771506 0.08463829 0.279015 -0.9565495 0.08463841 0.2790154 0.9565494 0.1846855 0.6088266 -0.7715059 0.256282 0.8448489 -0.4696273 0.4691488 0.8777149 -0.09754943 0.4512812 0.8442877 0.2890043 0.3651015 0.6830559 0.6325627 0.2230499 0.4172968 0.8809723 0.2230498 0.4172968 -0.8809723 0.3651013 0.6830561 -0.6325626 0.4512811 0.8442878 -0.289004 0.4691488 0.8777148 0.09754943 0.4161796 0.7786174 0.469627 0.2999131 0.5610976 0.771506 0.1374452 0.2571417 -0.9565495 0.1374453 0.257142 0.9565494 0.2999132 0.5610977 -0.771506 0.4161799 0.7786169 -0.4696277 0.6313679 0.7693235 -0.09754937 0.6073225 0.7400242 0.2890042 0.4913435 0.5987037 0.6325626 0.3001747 0.3657637 0.8809722 0.3001746 0.3657637 -0.8809723 0.4913436 0.5987037 -0.6325626 0.6073225 0.7400246 -0.2890038 0.6313679 0.7693235 0.09754949 0.5600835 0.6824637 0.4696274 0.403615 0.4918062 0.771506 0.18497 0.2253866 -0.9565495 0.1849703 0.2253868 0.9565494 0.4036152 0.4918062 -0.771506 0.5600834 0.6824635 -0.4696276 0.7693238 0.6313675 -0.09754937 0.7400243 0.6073224 0.289004 0.5987039 0.4913432 0.6325626 0.3657639 0.3001745 0.8809722 0.3657639 0.3001744 -0.8809723 0.5987039 0.4913434 -0.6325625 0.7400247 0.6073223 -0.2890036 0.769324 0.6313674 0.0975492 0.6824638 0.5600835 0.4696273 0.4918063 0.4036149 0.771506 0.2253867 0.1849699 -0.9565495 0.2253869 0.1849702 0.9565495 0.4918064 0.4036149 -0.7715059 0.6824638 0.5600831 -0.4696276 0.8777151 0.4691485 -0.09754925 0.8442876 0.4512812 0.2890045 0.6830563 0.365101 0.6325625 0.417297 0.2230497 0.8809723 0.4172969 0.2230496 -0.8809723 0.6830564 0.3651009 -0.6325626 0.844288 0.4512811 -0.2890037 0.8777152 0.4691484 0.09754914 0.7786173 0.4161792 0.4696274 0.5610978 0.2999128 0.771506 0.2571418 0.137445 -0.9565495 0.2571421 0.1374452 0.9565494 0.5610979 0.2999128 -0.771506 0.7786172 0.4161794 -0.4696276 0.9523765 0.2889001 -0.0975492 0.9161055 0.2778975 0.2890046 0.7411593 0.2248278 0.6325624 0.4527937 0.1373533 0.8809722 0.4527934 0.1373533 -0.8809723 0.7411594 0.2248278 -0.6325625 0.9161057 0.2778974 -0.2890039 0.9523766 0.2888998 0.09754884 0.8448491 0.256282 0.4696272 0.6088265 0.1846851 0.771506 0.2790151 0.08463823 -0.9565496 0.2790154 0.08463835 0.9565494 0.6088268 0.1846854 -0.7715059 0.8448489 0.2562817 -0.4696277 0.9904385 0.09754925 -0.0975489 0.9527179 0.0938341 0.2890044 0.7707799 0.07591509 0.6325624 0.4708898 0.04637831 0.8809721 0.4708895 0.04637849 -0.8809723 0.7707799 0.07591491 -0.6325626 0.952718 0.09383445 -0.289004 0.9904385 0.09754937 0.09754902 0.8786136 0.08653581 0.4696274 0.6331585 0.06236046 0.771506 0.290166 0.02857875 -0.9565495 0.2901663 0.02857869 0.9565494 0.6331587 0.06236028 -0.7715059 0.8786133 0.08653575 -0.4696276 0.9904384 -0.09754991 -0.09754902 0.9527179 -0.09383475 0.2890045 0.7707798 -0.07591539 0.6325625 0.4708897 -0.04637855 0.8809721 0.4708895 -0.04637861 -0.8809723 0.7707799 -0.07591527 -0.6325625 0.9527181 -0.09383481 -0.2890038 0.9904385 -0.09754967 0.09754925 0.8786135 -0.08653616 0.4696273 0.6331584 -0.0623607 0.771506 0.290166 -0.02857887 -0.9565496 0.2901663 -0.02857893 0.9565494 0.6331588 -0.0623607 -0.7715058 0.8786133 -0.0865361 -0.4696274 0.9523763 -0.2889004 -0.09754931 0.9161055 -0.2778978 0.2890046 0.7411593 -0.2248283 0.6325625 0.4527936 -0.1373536 0.8809722 0.4527934 -0.1373533 -0.8809723 0.741159 -0.2248285 -0.6325626 0.9161056 -0.2778978 -0.2890039 0.9523764 -0.2889005 0.09754931 0.8448489 -0.2562823 0.4696272 0.6088265 -0.1846858 0.771506 0.2790151 -0.08463841 -0.9565494 0.2790154 -0.08463847 0.9565495 0.6088267 -0.184686 -0.7715058 0.8448489 -0.2562821 -0.4696273 0.8777151 -0.4691487 -0.09754914 0.8442876 -0.4512813 0.2890045 0.6830561 -0.3651013 0.6325626 0.4172969 -0.22305 0.8809722 0.4172969 -0.2230499 -0.8809722 0.683056 -0.3651013 -0.6325626 0.8442879 -0.4512813 -0.2890039 0.877715 -0.4691488 0.09754931 0.7786173 -0.4161797 0.469627 0.5610978 -0.2999132 0.771506 0.2571417 -0.1374452 -0.9565495 0.257142 -0.1374454 0.9565494 0.5610978 -0.2999134 -0.7715058 0.778617 -0.4161798 -0.4696274 0.7693236 -0.6313679 -0.0975489 0.7400242 -0.6073225 0.2890044 0.5987038 -0.4913434 0.6325626 0.3657638 -0.3001748 0.8809722 0.3657637 -0.3001748 -0.8809722 0.5987033 -0.4913436 -0.6325629 0.7400243 -0.6073226 -0.2890039 0.7693234 -0.6313682 0.09754914 0.6824637 -0.5600836 0.4696271 0.4918062 -0.4036153 0.7715059 0.2253865 -0.1849702 -0.9565495 0.2253867 -0.1849704 0.9565494 0.4918063 -0.4036155 -0.7715058 0.6824639 -0.5600835 -0.4696271 0.6313677 -0.7693238 -0.0975489 0.6073223 -0.7400243 0.2890046 0.4913432 -0.5987037 0.6325628 0.3001746 -0.365764 0.8809722 0.3001745 -0.3657639 -0.8809722 0.4913432 -0.5987038 -0.6325628 0.6073222 -0.7400246 -0.289004 0.6313676 -0.7693239 0.09754872 0.5600835 -0.6824639 0.469627 0.4036149 -0.4918066 0.7715058 0.18497 -0.2253867 -0.9565495 0.1849702 -0.225387 0.9565493 0.4036148 -0.4918068 -0.7715058 0.5600834 -0.682464 -0.4696271 0.4691485 -0.8777153 -0.09754872 0.451281 -0.8442878 0.2890046 0.365101 -0.6830561 0.6325626 0.2230498 -0.4172971 0.8809722 0.2230497 -0.4172971 -0.8809721 0.3651006 -0.6830562 -0.632563 0.4512811 -0.8442878 -0.2890042 0.4691482 -0.8777154 0.09754848 0.4161796 -0.7786173 0.4696272 0.2999128 -0.5610982 0.7715058 0.137445 -0.2571419 -0.9565495 0.1374452 -0.2571423 0.9565494 0.2999128 -0.5610982 -0.7715057 0.4161795 -0.7786174 -0.4696272 0.2888998 -0.9523766 -0.09754848 0.2778972 -0.9161056 0.2890045 0.224828 -0.741159 0.6325628 0.1373533 -0.4527938 0.8809722 0.1373533 -0.4527937 -0.8809721 0.2248278 -0.7411589 -0.632563 0.2778975 -0.9161058 -0.2890039 0.2889002 -0.9523765 0.09754884 0.256282 -0.844849 0.4696272 0.1846854 -0.6088269 0.7715058 0.08463817 -0.2790152 -0.9565495 0.08463829 -0.2790156 0.9565494 0.1846853 -0.6088269 -0.7715057 0.2562821 -0.844849 -0.4696273 0.09754961 -0.9904385 -0.0975489 0.09383445 -0.952718 0.2890042 0.07591503 -0.7707795 0.6325629 0.04637861 -0.4708898 0.8809721 0.04637849 -0.4708896 -0.8809722 0.07591491 -0.7707796 -0.6325629 0.09383416 -0.9527181 -0.2890042 0.09754937 -0.9904385 0.09754866 0.08653551 -0.8786137 0.469627 0.06236046 -0.6331588 0.7715057 0.02857881 -0.2901661 -0.9565495 0.02857881 -0.2901664 0.9565494 0.06236034 -0.6331588 -0.7715057 0.08653581 -0.8786136 -0.4696273 -0.09754991 -0.9904385 -0.09754872 -0.09383475 -0.9527179 0.2890044 -0.07591539 -0.7707795 0.6325629 -0.04637855 -0.4708897 0.8809722 -0.04637873 -0.4708896 -0.8809722 -0.07591563 -0.7707793 -0.632563 -0.09383451 -0.9527181 -0.2890037 -0.09754973 -0.9904385 0.09754896 -0.08653587 -0.8786135 0.4696273 -0.06236106 -0.6331588 0.7715056 -0.02857893 -0.2901661 -0.9565495 -0.02857905 -0.2901664 0.9565494 -0.06236106 -0.6331588 -0.7715057 -0.08653616 -0.8786136 -0.469627 -0.2889001 -0.9523764 -0.09754896 -0.2778975 -0.9161056 0.289004 -0.2248281 -0.7411589 0.6325629 -0.1373535 -0.4527935 0.8809722 -0.1373534 -0.4527937 -0.8809722 -0.2248282 -0.7411589 -0.6325631 -0.2778981 -0.9161054 -0.2890043 -0.2889006 -0.9523764 0.0975486 -0.2562827 -0.8448489 0.469627 -0.1846857 -0.608827 0.7715056 -0.08463841 -0.2790151 -0.9565494 -0.08463847 -0.2790155 0.9565494 -0.1846859 -0.6088268 -0.7715058 -0.2562822 -0.8448489 -0.4696273 -0.4691487 -0.8777151 -0.09754866 -0.4512813 -0.8442876 0.2890046 -0.365101 -0.6830559 0.6325629 -0.2230499 -0.417297 0.8809722 -0.22305 -0.417297 -0.8809722 -0.3651011 -0.6830558 -0.6325631 -0.4512814 -0.8442877 -0.2890042 -0.4691486 -0.8777152 0.09754866 -0.4161799 -0.7786173 0.4696269 -0.2999132 -0.561098 0.7715057 -0.1374452 -0.2571418 -0.9565494 -0.1374455 -0.2571421 0.9565494 -0.2999134 -0.5610978 -0.7715058 -0.4161795 -0.7786173 -0.469627 -0.6313679 -0.7693236 -0.09754896 -0.6073224 -0.7400241 0.2890046 -0.4913434 -0.5987035 0.632563 -0.3001747 -0.3657638 0.8809722 -0.3001749 -0.3657639 -0.8809721 -0.4913436 -0.5987032 -0.6325632 -0.6073225 -0.7400245 -0.289004 -0.6313678 -0.7693238 0.09754866 -0.5600839 -0.6824638 0.4696268 -0.4036155 -0.4918063 0.7715055 -0.1849702 -0.2253867 -0.9565495 -0.1849704 -0.2253869 0.9565494 -0.4036154 -0.4918065 -0.7715057 -0.5600838 -0.6824638 -0.469627 -0.7693238 -0.6313677 -0.09754842 -0.7400243 -0.6073223 0.2890049 -0.5987036 -0.4913431 0.6325631 -0.3657638 -0.3001746 0.8809722 -0.365764 -0.3001745 -0.8809721 -0.5987036 -0.491343 -0.6325632 -0.7400245 -0.6073225 -0.289004 -0.769324 -0.6313673 0.09754884 -0.682464 -0.5600835 0.4696269 -0.4918069 -0.4036151 0.7715055 -0.2253867 -0.1849701 -0.9565494 -0.2253871 -0.1849703 0.9565494 -0.4918068 -0.4036148 -0.7715057 -0.6824639 -0.5600834 -0.4696271 -0.8777153 -0.4691485 -0.09754842 -0.8442876 -0.451281 0.289005 -0.6830559 -0.3651009 0.6325631 -0.417297 -0.2230497 0.8809721 -0.4172971 -0.2230498 -0.880972 -0.6830559 -0.3651006 -0.6325632 -0.844288 -0.451281 -0.2890042 -0.8777152 -0.4691486 0.0975483 -0.7786176 -0.4161795 0.4696268 -0.5610985 -0.299913 0.7715055 -0.257142 -0.1374451 -0.9565494 -0.2571423 -0.1374453 0.9565493 -0.5610983 -0.2999129 -0.7715057 -0.7786172 -0.4161795 -0.4696274 -0.9523764 -0.2889002 -0.09754836 -0.9161052 -0.2778974 0.2890053 -0.7411587 -0.224828 0.6325632 -0.4527935 -0.1373533 0.8809721 -0.4527938 -0.1373533 -0.880972 -0.7411587 -0.2248277 -0.6325634 -0.9161057 -0.2778971 -0.2890045 -0.9523766 -0.2889002 0.09754836 -0.8448494 -0.2562819 0.4696264 -0.6088272 -0.1846855 0.7715055 -0.2790152 -0.08463829 -0.9565495 -0.2790156 -0.08463829 0.9565493 -0.608827 -0.1846851 -0.7715057 -0.844849 -0.2562821 -0.4696273 -0.9904382 -0.09755301 -0.0975483 -0.9527178 -0.09383744 0.289004 -0.7707797 -0.0759173 0.6325624 -0.4708893 -0.04638051 0.8809722 -0.4708893 -0.04638081 -0.8809722 -0.7707787 -0.07591897 -0.6325635 -0.9527176 -0.09383833 -0.2890045 -0.9904379 -0.09755402 0.09754961 -0.8786128 -0.08653998 0.4696279 -0.6331583 -0.0623638 0.7715059 -0.290166 -0.02857995 -0.9565495 -0.2901662 -0.02858024 0.9565494 -0.6331583 -0.06236386 -0.7715058 -0.8786134 -0.08653831 -0.4696271</float_array>
          <technique_common>
            <accessor source="#Sphere-mesh-normals-array" count="960" stride="3">
              <param name="X" type="float"/>
              <param name="Y" type="float"/>
              <param name="Z" type="float"/>
            </accessor>
          </technique_common>
        </source>
        <vertices id="Sphere-mesh-vertices">
          <input semantic="POSITION" source="#Sphere-mesh-positions"/>
        </vertices>
        <polylist material="Material_001-material" count="960">
          <input semantic="VERTEX" source="#Sphere-mesh-vertices" offset="0"/>
          <input semantic="NORMAL" source="#Sphere-mesh-normals" offset="1"/>
          <vcount>3 3 3 3 3 3 3 3 3 3 3 3 3 3 3 3 3 3 3 3 3 3 3 3 3 3 3 3 3 3 3 3 3 3 3 3 3 3 3 3 3 3 3 3 3 3 3 3 3 3 3 3 3 3 3 3 3 3 3 3 3 3 3 3 3 3 3 3 3 3 3 3 3 3 3 3 3 3 3 3 3 3 3 3 3 3 3 3 3 3 3 3 3 3 3 3 3 3 3 3 3 3 3 3 3 3 3 3 3 3 3 3 3 3 3 3 3 3 3 3 3 3 3 3 3 3 3 3 3 3 3 3 3 3 3 3 3 3 3 3 3 3 3 3 3 3 3 3 3 3 3 3 3 3 3 3 3 3 3 3 3 3 3 3 3 3 3 3 3 3 3 3 3 3 3 3 3 3 3 3 3 3 3 3 3 3 3 3 3 3 3 3 3 3 3 3 3 3 3 3 3 3 3 3 3 3 3 3 3 3 3 3 3 3 3 3 3 3 3 3 3 3 3 3 3 3 3 3 3 3 3 3 3 3 3 3 3 3 3 3 3 3 3 3 3 3 3 3 3 3 3 3 3 3 3 3 3 3 3 3 3 3 3 3 3 3 3 3 3 3 3 3 3 3 3 3 3 3 3 3 3 3 3 3 3 3 3 3 3 3 3 3 3 3 3 3 3 3 3 3 3 3 3 3 3 3 3 3 3 3 3 3 3 3 3 3 3 3 3 3 3 3 3 3 3 3 3 3 3 3 3 3 3 3 3 3 3 3 3 3 3 3 3 3 3 3 3 3 3 3 3 3 3 3 3 3 3 3 3 3 3 3 3 3 3 3 3 3 3 3 3 3 3 3 3 3 3 3 3 3 3 3 3 3 3 3 3 3 3 3 3 3 3 3 3 3 3 3 3 3 3 3 3 3 3 3 3 3 3 3 3 3 3 3 3 3 3 3 3 3 3 3 3 3 3 3 3 3 3 3 3 3 3 3 3 3 3 3 3 3 3 3 3 3 3 3 3 3 3 3 3 3 3 3 3 3 3 3 3 3 3 3 3 3 3 3 3 3 3 3 3 3 3 3 3 3 3 3 3 3 3 3 3 3 3 3 3 3 3 3 3 3 3 3 3 3 3 3 3 3 3 3 3 3 3 3 3 3 3 3 3 3 3 3 3 3 3 3 3 3 3 3 3 3 3 3 3 3 3 3 3 3 3 3 3 3 3 3 3 3 3 3 3 3 3 3 3 3 3 3 3 3 3 3 3 3 3 3 3 3 3 3 3 3 3 3 3 3 3 3 3 3 3 3 3 3 3 3 3 3 3 3 3 3 3 3 3 3 3 3 3 3 3 3 3 3 3 3 3 3 3 3 3 3 3 3 3 3 3 3 3 3 3 3 3 3 3 3 3 3 3 3 3 3 3 3 3 3 3 3 3 3 3 3 3 3 3 3 3 3 3 3 3 3 3 3 3 3 3 3 3 3 3 3 3 3 3 3 3 3 3 3 3 3 3 3 3 3 3 3 3 3 3 3 3 3 3 3 3 3 3 3 3 3 3 3 3 3 3 3 3 3 3 3 3 3 3 3 3 3 3 3 3 3 3 3 3 3 3 3 3 3 3 3 3 3 3 3 3 3 3 3 3 3 3 3 3 3 3 3 3 3 3 3 3 3 3 3 3 3 3 3 3 3 3 3 3 3 3 3 3 3 3 3 3 3 3 3 3 3 3 3 3 3 3 3 3 3 3 3 3 3 3 3 3 3 3 3 3 3 3 3 3 3 3 3 3 3 3 3 3 3 3 3 3 3 3 3 3 3 3 3 3 3 3 3 3 3 3 3 3 3 3 3 3 3 3 3 3 3 3 3 3 3 3 3 3 3 3 3 3 3 3 3 3 3 3 3 3 3 3 3 3 3 3 3 3 3 3 3 3 3 3 3 3 3 3 3 3 3 3 3 3 3 3 3 3 3 3 3 3 3 3 3 3 3 3 3 3 3 3 3 3 3 3 3 3 3 3 3 3 3 3 3 3 3 3 3 3 3 3 3 3 3 3 3 3 3 3 3 3 3 3 3 3 3 3 3 3 3 3 3 3 3 3 3 3 3 3 3 3 3 3 3 3 3 3 3 3 3 3 3 3 3 3 3 3 3 3 3 3 3 3 3 3 3 3 3 3 3 </vcount>
          <p>1 0 16 0 17 0 13 1 12 1 27 1 11 2 10 2 25 2 9 3 8 3 23 3 6 4 21 4 22 4 4 5 19 5 20 5 2 6 17 6 18 6 14 7 13 7 28 7 0 8 15 8 16 8 12 9 11 9 26 9 10 10 9 10 24 10 7 11 22 11 23 11 5 12 20 12 21 12 3 13 18 13 19 13 22 14 37 14 38 14 20 15 35 15 36 15 19 16 18 16 33 16 16 17 31 17 32 17 27 18 42 18 43 18 25 19 40 19 41 19 24 20 23 20 38 20 22 21 21 21 36 21 20 22 19 22 34 22 18 23 17 23 32 23 29 24 28 24 43 24 15 25 30 25 31 25 26 26 41 26 42 26 25 27 24 27 39 27 38 28 37 28 52 28 35 29 50 29 51 29 33 30 48 30 49 30 31 31 46 31 47 31 43 32 42 32 57 32 41 33 40 33 55 33 39 34 38 34 53 34 37 35 36 35 51 35 35 36 34 36 49 36 32 37 47 37 48 37 43 38 58 38 59 38 30 39 45 39 46 39 42 40 41 40 56 40 39 41 54 41 55 41 52 42 67 42 68 42 50 43 65 43 66 43 48 44 63 44 64 44 46 45 61 45 62 45 57 46 72 46 73 46 56 47 55 47 70 47 53 48 68 48 69 48 52 49 51 49 66 49 50 50 49 50 64 50 47 51 62 51 63 51 59 52 58 52 73 52 45 53 60 53 61 53 57 54 56 54 71 54 54 55 69 55 70 55 67 56 82 56 83 56 65 57 80 57 81 57 63 58 78 58 79 58 61 59 76 59 77 59 73 60 72 60 87 60 71 61 70 61 85 61 68 62 83 62 84 62 67 63 66 63 81 63 64 64 79 64 80 64 62 65 77 65 78 65 74 66 73 66 88 66 60 67 75 67 76 67 72 68 71 68 86 68 70 69 69 69 84 69 82 70 97 70 98 70 80 71 95 71 96 71 78 72 93 72 94 72 76 73 91 73 92 73 88 74 87 74 102 74 86 75 85 75 100 75 83 76 98 76 99 76 82 77 81 77 96 77 79 78 94 78 95 78 77 79 92 79 93 79 89 80 88 80 103 80 75 81 90 81 91 81 87 82 86 82 101 82 85 83 84 83 99 83 97 84 112 84 113 84 95 85 110 85 111 85 93 86 108 86 109 86 91 87 106 87 107 87 103 88 102 88 117 88 101 89 100 89 115 89 98 90 113 90 114 90 97 91 96 91 111 91 94 92 109 92 110 92 92 93 107 93 108 93 104 94 103 94 118 94 90 95 105 95 106 95 102 96 101 96 116 96 100 97 99 97 114 97 112 98 127 98 128 98 110 99 125 99 126 99 108 100 123 100 124 100 107 101 106 101 121 101 118 102 117 102 132 102 115 103 130 103 131 103 113 104 128 104 129 104 112 105 111 105 126 105 109 106 124 106 125 106 108 107 107 107 122 107 119 108 118 108 133 108 106 109 105 109 120 109 117 110 116 110 131 110 115 111 114 111 129 111 127 112 142 112 143 112 125 113 140 113 141 113 123 114 138 114 139 114 121 115 136 115 137 115 132 116 147 116 148 116 131 117 130 117 145 117 128 118 143 118 144 118 127 119 126 119 141 119 124 120 139 120 140 120 123 121 122 121 137 121 134 122 133 122 148 122 120 123 135 123 136 123 132 124 131 124 146 124 130 125 129 125 144 125 142 126 157 126 158 126 140 127 155 127 156 127 139 128 138 128 153 128 136 129 151 129 152 129 147 130 162 130 163 130 145 131 160 131 161 131 143 132 158 132 159 132 142 133 141 133 156 133 139 134 154 134 155 134 137 135 152 135 153 135 149 136 148 136 163 136 135 137 150 137 151 137 147 138 146 138 161 138 145 139 144 139 159 139 157 140 172 140 173 140 155 141 170 141 171 141 153 142 168 142 169 142 151 143 166 143 167 143 163 144 162 144 177 144 161 145 160 145 175 145 158 146 173 146 174 146 157 147 156 147 171 147 154 148 169 148 170 148 152 149 167 149 168 149 164 150 163 150 178 150 150 151 165 151 166 151 162 152 161 152 176 152 160 153 159 153 174 153 172 154 187 154 188 154 170 155 185 155 186 155 169 156 168 156 183 156 166 157 181 157 182 157 178 158 177 158 192 158 175 159 190 159 191 159 173 160 188 160 189 160 172 161 171 161 186 161 169 162 184 162 185 162 167 163 182 163 183 163 179 164 178 164 193 164 165 165 180 165 181 165 177 166 176 166 191 166 175 167 174 167 189 167 187 168 202 168 203 168 186 169 185 169 200 169 183 170 198 170 199 170 181 171 196 171 197 171 192 172 207 172 208 172 191 173 190 173 205 173 188 174 203 174 204 174 187 175 186 175 201 175 184 176 199 176 200 176 182 177 197 177 198 177 194 178 193 178 208 178 180 179 195 179 196 179 192 180 191 180 206 180 190 181 189 181 204 181 202 182 217 182 218 182 201 183 200 183 215 183 198 184 213 184 214 184 196 185 211 185 212 185 207 186 222 186 223 186 206 187 205 187 220 187 203 188 218 188 219 188 202 189 201 189 216 189 199 190 214 190 215 190 197 191 212 191 213 191 209 192 208 192 223 192 196 193 195 193 210 193 207 194 206 194 221 194 205 195 204 195 219 195 217 196 232 196 233 196 216 197 215 197 230 197 213 198 228 198 229 198 211 199 226 199 227 199 222 200 237 200 238 200 221 201 220 201 235 201 218 202 233 202 234 202 217 203 216 203 231 203 214 204 229 204 230 204 212 205 227 205 228 205 224 206 223 206 238 206 210 207 225 207 226 207 222 208 221 208 236 208 220 209 219 209 234 209 232 210 247 210 248 210 231 211 230 211 245 211 228 212 243 212 244 212 226 213 241 213 242 213 237 214 252 214 253 214 236 215 235 215 250 215 233 216 248 216 249 216 232 217 231 217 246 217 229 218 244 218 245 218 227 219 242 219 243 219 239 220 238 220 253 220 225 221 240 221 241 221 237 222 236 222 251 222 235 223 234 223 249 223 247 224 262 224 263 224 246 225 245 225 260 225 243 226 258 226 259 226 241 227 256 227 257 227 252 228 267 228 268 228 251 229 250 229 265 229 248 230 263 230 264 230 247 231 246 231 261 231 244 232 259 232 260 232 242 233 257 233 258 233 254 234 253 234 268 234 240 235 255 235 256 235 252 236 251 236 266 236 250 237 249 237 264 237 262 238 277 238 278 238 261 239 260 239 275 239 258 240 273 240 274 240 256 241 271 241 272 241 267 242 282 242 283 242 266 243 265 243 280 243 263 244 278 244 279 244 262 245 261 245 276 245 259 246 274 246 275 246 257 247 272 247 273 247 268 248 283 248 284 248 255 249 270 249 271 249 267 250 266 250 281 250 265 251 264 251 279 251 278 252 277 252 292 252 276 253 275 253 290 253 273 254 288 254 289 254 271 255 286 255 287 255 282 256 297 256 298 256 281 257 280 257 295 257 278 258 293 258 294 258 276 259 291 259 292 259 274 260 289 260 290 260 272 261 287 261 288 261 284 262 283 262 298 262 270 263 285 263 286 263 282 264 281 264 296 264 280 265 279 265 294 265 293 266 292 266 307 266 291 267 290 267 305 267 288 268 303 268 304 268 286 269 301 269 302 269 297 270 312 270 313 270 296 271 295 271 310 271 293 272 308 272 309 272 291 273 306 273 307 273 289 274 304 274 305 274 287 275 302 275 303 275 299 276 298 276 313 276 285 277 300 277 301 277 297 278 296 278 311 278 295 279 294 279 309 279 307 280 322 280 323 280 306 281 305 281 320 281 303 282 318 282 319 282 301 283 316 283 317 283 312 284 327 284 328 284 311 285 310 285 325 285 308 286 323 286 324 286 307 287 306 287 321 287 305 288 304 288 319 288 303 289 302 289 317 289 314 290 313 290 328 290 301 291 300 291 315 291 312 292 311 292 326 292 309 293 324 293 325 293 322 294 338 294 339 294 320 295 336 295 337 295 318 296 334 296 335 296 316 297 332 297 333 297 327 298 343 298 344 298 326 299 325 299 341 299 324 300 323 300 339 300 322 301 321 301 337 301 320 302 319 302 335 302 318 303 317 303 333 303 329 304 328 304 344 304 316 305 315 305 331 305 327 306 326 306 342 306 324 307 340 307 341 307 338 308 353 308 354 308 336 309 351 309 352 309 334 310 349 310 350 310 332 311 347 311 348 311 343 312 358 312 359 312 342 313 341 313 356 313 340 314 339 314 354 314 338 315 337 315 352 315 336 316 335 316 350 316 334 317 333 317 348 317 345 318 344 318 359 318 331 319 346 319 347 319 343 320 342 320 357 320 340 321 355 321 356 321 353 322 368 322 369 322 351 323 366 323 367 323 349 324 364 324 365 324 347 325 362 325 363 325 358 326 373 326 374 326 357 327 356 327 371 327 355 328 354 328 369 328 353 329 352 329 367 329 351 330 350 330 365 330 349 331 348 331 363 331 360 332 359 332 374 332 347 333 346 333 361 333 358 334 357 334 372 334 355 335 370 335 371 335 368 336 383 336 384 336 366 337 381 337 382 337 364 338 379 338 380 338 362 339 377 339 378 339 373 340 388 340 389 340 372 341 371 341 386 341 370 342 369 342 384 342 368 343 367 343 382 343 366 344 365 344 380 344 364 345 363 345 378 345 375 346 374 346 389 346 361 347 376 347 377 347 373 348 372 348 387 348 370 349 385 349 386 349 383 350 398 350 399 350 381 351 396 351 397 351 379 352 394 352 395 352 377 353 392 353 393 353 388 354 403 354 404 354 387 355 386 355 401 355 385 356 384 356 399 356 383 357 382 357 397 357 381 358 380 358 395 358 379 359 378 359 393 359 389 360 404 360 405 360 377 361 376 361 391 361 388 362 387 362 402 362 385 363 400 363 401 363 398 364 413 364 414 364 396 365 411 365 412 365 394 366 409 366 410 366 392 367 407 367 408 367 403 368 418 368 419 368 402 369 401 369 416 369 400 370 399 370 414 370 397 371 412 371 413 371 396 372 395 372 410 372 394 373 393 373 408 373 405 374 404 374 419 374 391 375 406 375 407 375 403 376 402 376 417 376 400 377 415 377 416 377 414 378 413 378 428 378 411 379 426 379 427 379 409 380 424 380 425 380 407 381 422 381 423 381 418 382 433 382 434 382 417 383 416 383 431 383 415 384 414 384 429 384 412 385 427 385 428 385 411 386 410 386 425 386 409 387 408 387 423 387 419 388 434 388 435 388 407 389 406 389 421 389 418 390 417 390 432 390 415 391 430 391 431 391 429 392 428 392 443 392 427 393 426 393 441 393 424 394 439 394 440 394 422 395 437 395 438 395 433 396 448 396 449 396 432 397 431 397 446 397 429 398 444 398 445 398 427 399 442 399 443 399 426 400 425 400 440 400 424 401 423 401 438 401 434 402 449 402 450 402 422 403 421 403 436 403 433 404 432 404 447 404 430 405 445 405 446 405 444 406 443 406 459 406 442 407 441 407 457 407 439 408 455 408 456 408 437 409 453 409 454 409 448 410 464 410 465 410 447 411 446 411 462 411 445 412 444 412 460 412 442 413 458 413 459 413 441 414 440 414 456 414 439 415 438 415 454 415 449 416 465 416 466 416 437 417 436 417 452 417 448 418 447 418 463 418 445 419 461 419 462 419 460 420 459 420 474 420 458 421 457 421 472 421 455 422 470 422 471 422 453 423 468 423 469 423 464 424 479 424 480 424 463 425 462 425 477 425 461 426 460 426 475 426 458 427 473 427 474 427 457 428 456 428 471 428 455 429 454 429 469 429 465 430 480 430 481 430 453 431 452 431 467 431 464 432 463 432 478 432 461 433 476 433 477 433 0 434 451 434 15 434 330 435 14 435 29 435 330 436 29 436 44 436 15 437 451 437 30 437 330 438 44 438 59 438 30 439 451 439 45 439 330 440 59 440 74 440 45 441 451 441 60 441 330 442 74 442 89 442 60 443 451 443 75 443 330 444 89 444 104 444 75 445 451 445 90 445 330 446 104 446 119 446 90 447 451 447 105 447 330 448 119 448 134 448 105 449 451 449 120 449 330 450 134 450 149 450 120 451 451 451 135 451 330 452 149 452 164 452 135 453 451 453 150 453 330 454 164 454 179 454 150 455 451 455 165 455 330 456 179 456 194 456 165 457 451 457 180 457 330 458 194 458 209 458 180 459 451 459 195 459 330 460 209 460 224 460 195 461 451 461 210 461 330 462 224 462 239 462 210 463 451 463 225 463 330 464 239 464 254 464 225 465 451 465 240 465 330 466 254 466 269 466 240 467 451 467 255 467 330 468 269 468 284 468 255 469 451 469 270 469 330 470 284 470 299 470 270 471 451 471 285 471 330 472 299 472 314 472 285 473 451 473 300 473 330 474 314 474 329 474 300 475 451 475 315 475 330 476 329 476 345 476 315 477 451 477 331 477 330 478 345 478 360 478 331 479 451 479 346 479 330 480 360 480 375 480 346 481 451 481 361 481 330 482 375 482 390 482 361 483 451 483 376 483 330 484 390 484 405 484 376 485 451 485 391 485 330 486 405 486 420 486 391 487 451 487 406 487 330 488 420 488 435 488 406 489 451 489 421 489 330 490 435 490 450 490 421 491 451 491 436 491 330 492 450 492 466 492 436 493 451 493 452 493 330 494 466 494 481 494 452 495 451 495 467 495 474 496 7 496 8 496 473 497 472 497 5 497 471 498 470 498 3 498 330 499 481 499 14 499 469 500 468 500 1 500 479 501 12 501 13 501 467 502 451 502 0 502 477 503 10 503 11 503 475 504 8 504 9 504 474 505 473 505 6 505 472 506 471 506 4 506 470 507 469 507 2 507 480 508 13 508 14 508 468 509 467 509 0 509 478 510 11 510 12 510 476 511 9 511 10 511 2 512 1 512 17 512 28 513 13 513 27 513 26 514 11 514 25 514 24 515 9 515 23 515 7 516 6 516 22 516 5 517 4 517 20 517 3 518 2 518 18 518 29 519 14 519 28 519 1 520 0 520 16 520 27 521 12 521 26 521 25 522 10 522 24 522 8 523 7 523 23 523 6 524 5 524 21 524 4 525 3 525 19 525 23 526 22 526 38 526 21 527 20 527 36 527 34 528 19 528 33 528 17 529 16 529 32 529 28 530 27 530 43 530 26 531 25 531 41 531 39 532 24 532 38 532 37 533 22 533 36 533 35 534 20 534 34 534 33 535 18 535 32 535 44 536 29 536 43 536 16 537 15 537 31 537 27 538 26 538 42 538 40 539 25 539 39 539 53 540 38 540 52 540 36 541 35 541 51 541 34 542 33 542 49 542 32 543 31 543 47 543 58 544 43 544 57 544 56 545 41 545 55 545 54 546 39 546 53 546 52 547 37 547 51 547 50 548 35 548 49 548 33 549 32 549 48 549 44 550 43 550 59 550 31 551 30 551 46 551 57 552 42 552 56 552 40 553 39 553 55 553 53 554 52 554 68 554 51 555 50 555 66 555 49 556 48 556 64 556 47 557 46 557 62 557 58 558 57 558 73 558 71 559 56 559 70 559 54 560 53 560 69 560 67 561 52 561 66 561 65 562 50 562 64 562 48 563 47 563 63 563 74 564 59 564 73 564 46 565 45 565 61 565 72 566 57 566 71 566 55 567 54 567 70 567 68 568 67 568 83 568 66 569 65 569 81 569 64 570 63 570 79 570 62 571 61 571 77 571 88 572 73 572 87 572 86 573 71 573 85 573 69 574 68 574 84 574 82 575 67 575 81 575 65 576 64 576 80 576 63 577 62 577 78 577 89 578 74 578 88 578 61 579 60 579 76 579 87 580 72 580 86 580 85 581 70 581 84 581 83 582 82 582 98 582 81 583 80 583 96 583 79 584 78 584 94 584 77 585 76 585 92 585 103 586 88 586 102 586 101 587 86 587 100 587 84 588 83 588 99 588 97 589 82 589 96 589 80 590 79 590 95 590 78 591 77 591 93 591 104 592 89 592 103 592 76 593 75 593 91 593 102 594 87 594 101 594 100 595 85 595 99 595 98 596 97 596 113 596 96 597 95 597 111 597 94 598 93 598 109 598 92 599 91 599 107 599 118 600 103 600 117 600 116 601 101 601 115 601 99 602 98 602 114 602 112 603 97 603 111 603 95 604 94 604 110 604 93 605 92 605 108 605 119 606 104 606 118 606 91 607 90 607 106 607 117 608 102 608 116 608 115 609 100 609 114 609 113 610 112 610 128 610 111 611 110 611 126 611 109 612 108 612 124 612 122 613 107 613 121 613 133 614 118 614 132 614 116 615 115 615 131 615 114 616 113 616 129 616 127 617 112 617 126 617 110 618 109 618 125 618 123 619 108 619 122 619 134 620 119 620 133 620 121 621 106 621 120 621 132 622 117 622 131 622 130 623 115 623 129 623 128 624 127 624 143 624 126 625 125 625 141 625 124 626 123 626 139 626 122 627 121 627 137 627 133 628 132 628 148 628 146 629 131 629 145 629 129 630 128 630 144 630 142 631 127 631 141 631 125 632 124 632 140 632 138 633 123 633 137 633 149 634 134 634 148 634 121 635 120 635 136 635 147 636 132 636 146 636 145 637 130 637 144 637 143 638 142 638 158 638 141 639 140 639 156 639 154 640 139 640 153 640 137 641 136 641 152 641 148 642 147 642 163 642 146 643 145 643 161 643 144 644 143 644 159 644 157 645 142 645 156 645 140 646 139 646 155 646 138 647 137 647 153 647 164 648 149 648 163 648 136 649 135 649 151 649 162 650 147 650 161 650 160 651 145 651 159 651 158 652 157 652 173 652 156 653 155 653 171 653 154 654 153 654 169 654 152 655 151 655 167 655 178 656 163 656 177 656 176 657 161 657 175 657 159 658 158 658 174 658 172 659 157 659 171 659 155 660 154 660 170 660 153 661 152 661 168 661 179 662 164 662 178 662 151 663 150 663 166 663 177 664 162 664 176 664 175 665 160 665 174 665 173 666 172 666 188 666 171 667 170 667 186 667 184 668 169 668 183 668 167 669 166 669 182 669 193 670 178 670 192 670 176 671 175 671 191 671 174 672 173 672 189 672 187 673 172 673 186 673 170 674 169 674 185 674 168 675 167 675 183 675 194 676 179 676 193 676 166 677 165 677 181 677 192 678 177 678 191 678 190 679 175 679 189 679 188 680 187 680 203 680 201 681 186 681 200 681 184 682 183 682 199 682 182 683 181 683 197 683 193 684 192 684 208 684 206 685 191 685 205 685 189 686 188 686 204 686 202 687 187 687 201 687 185 688 184 688 200 688 183 689 182 689 198 689 209 690 194 690 208 690 181 691 180 691 196 691 207 692 192 692 206 692 205 693 190 693 204 693 203 694 202 694 218 694 216 695 201 695 215 695 199 696 198 696 214 696 197 697 196 697 212 697 208 698 207 698 223 698 221 699 206 699 220 699 204 700 203 700 219 700 217 701 202 701 216 701 200 702 199 702 215 702 198 703 197 703 213 703 224 704 209 704 223 704 211 705 196 705 210 705 222 706 207 706 221 706 220 707 205 707 219 707 218 708 217 708 233 708 231 709 216 709 230 709 214 710 213 710 229 710 212 711 211 711 227 711 223 712 222 712 238 712 236 713 221 713 235 713 219 714 218 714 234 714 232 715 217 715 231 715 215 716 214 716 230 716 213 717 212 717 228 717 239 718 224 718 238 718 211 719 210 719 226 719 237 720 222 720 236 720 235 721 220 721 234 721 233 722 232 722 248 722 246 723 231 723 245 723 229 724 228 724 244 724 227 725 226 725 242 725 238 726 237 726 253 726 251 727 236 727 250 727 234 728 233 728 249 728 247 729 232 729 246 729 230 730 229 730 245 730 228 731 227 731 243 731 254 732 239 732 253 732 226 733 225 733 241 733 252 734 237 734 251 734 250 735 235 735 249 735 248 736 247 736 263 736 261 737 246 737 260 737 244 738 243 738 259 738 242 739 241 739 257 739 253 740 252 740 268 740 266 741 251 741 265 741 249 742 248 742 264 742 262 743 247 743 261 743 245 744 244 744 260 744 243 745 242 745 258 745 269 746 254 746 268 746 241 747 240 747 256 747 267 748 252 748 266 748 265 749 250 749 264 749 263 750 262 750 278 750 276 751 261 751 275 751 259 752 258 752 274 752 257 753 256 753 272 753 268 754 267 754 283 754 281 755 266 755 280 755 264 756 263 756 279 756 277 757 262 757 276 757 260 758 259 758 275 758 258 759 257 759 273 759 269 760 268 760 284 760 256 761 255 761 271 761 282 762 267 762 281 762 280 763 265 763 279 763 293 764 278 764 292 764 291 765 276 765 290 765 274 766 273 766 289 766 272 767 271 767 287 767 283 768 282 768 298 768 296 769 281 769 295 769 279 770 278 770 294 770 277 771 276 771 292 771 275 772 274 772 290 772 273 773 272 773 288 773 299 774 284 774 298 774 271 775 270 775 286 775 297 776 282 776 296 776 295 777 280 777 294 777 308 778 293 778 307 778 306 779 291 779 305 779 289 780 288 780 304 780 287 781 286 781 302 781 298 782 297 782 313 782 311 783 296 783 310 783 294 784 293 784 309 784 292 785 291 785 307 785 290 786 289 786 305 786 288 787 287 787 303 787 314 788 299 788 313 788 286 789 285 789 301 789 312 790 297 790 311 790 310 791 295 791 309 791 308 792 307 792 323 792 321 793 306 793 320 793 304 794 303 794 319 794 302 795 301 795 317 795 313 796 312 796 328 796 326 797 311 797 325 797 309 798 308 798 324 798 322 799 307 799 321 799 320 800 305 800 319 800 318 801 303 801 317 801 329 802 314 802 328 802 316 803 301 803 315 803 327 804 312 804 326 804 310 805 309 805 325 805 323 806 322 806 339 806 321 807 320 807 337 807 319 808 318 808 335 808 317 809 316 809 333 809 328 810 327 810 344 810 342 811 326 811 341 811 340 812 324 812 339 812 338 813 322 813 337 813 336 814 320 814 335 814 334 815 318 815 333 815 345 816 329 816 344 816 332 817 316 817 331 817 343 818 327 818 342 818 325 819 324 819 341 819 339 820 338 820 354 820 337 821 336 821 352 821 335 822 334 822 350 822 333 823 332 823 348 823 344 824 343 824 359 824 357 825 342 825 356 825 355 826 340 826 354 826 353 827 338 827 352 827 351 828 336 828 350 828 349 829 334 829 348 829 360 830 345 830 359 830 332 831 331 831 347 831 358 832 343 832 357 832 341 833 340 833 356 833 354 834 353 834 369 834 352 835 351 835 367 835 350 836 349 836 365 836 348 837 347 837 363 837 359 838 358 838 374 838 372 839 357 839 371 839 370 840 355 840 369 840 368 841 353 841 367 841 366 842 351 842 365 842 364 843 349 843 363 843 375 844 360 844 374 844 362 845 347 845 361 845 373 846 358 846 372 846 356 847 355 847 371 847 369 848 368 848 384 848 367 849 366 849 382 849 365 850 364 850 380 850 363 851 362 851 378 851 374 852 373 852 389 852 387 853 372 853 386 853 385 854 370 854 384 854 383 855 368 855 382 855 381 856 366 856 380 856 379 857 364 857 378 857 390 858 375 858 389 858 362 859 361 859 377 859 388 860 373 860 387 860 371 861 370 861 386 861 384 862 383 862 399 862 382 863 381 863 397 863 380 864 379 864 395 864 378 865 377 865 393 865 389 866 388 866 404 866 402 867 387 867 401 867 400 868 385 868 399 868 398 869 383 869 397 869 396 870 381 870 395 870 394 871 379 871 393 871 390 872 389 872 405 872 392 873 377 873 391 873 403 874 388 874 402 874 386 875 385 875 401 875 399 876 398 876 414 876 397 877 396 877 412 877 395 878 394 878 410 878 393 879 392 879 408 879 404 880 403 880 419 880 417 881 402 881 416 881 415 882 400 882 414 882 398 883 397 883 413 883 411 884 396 884 410 884 409 885 394 885 408 885 420 886 405 886 419 886 392 887 391 887 407 887 418 888 403 888 417 888 401 889 400 889 416 889 429 890 414 890 428 890 412 891 411 891 427 891 410 892 409 892 425 892 408 893 407 893 423 893 419 894 418 894 434 894 432 895 417 895 431 895 430 896 415 896 429 896 413 897 412 897 428 897 426 898 411 898 425 898 424 899 409 899 423 899 420 900 419 900 435 900 422 901 407 901 421 901 433 902 418 902 432 902 416 903 415 903 431 903 444 904 429 904 443 904 442 905 427 905 441 905 425 906 424 906 440 906 423 907 422 907 438 907 434 908 433 908 449 908 447 909 432 909 446 909 430 910 429 910 445 910 428 911 427 911 443 911 441 912 426 912 440 912 439 913 424 913 438 913 435 914 434 914 450 914 437 915 422 915 436 915 448 916 433 916 447 916 431 917 430 917 446 917 460 918 444 918 459 918 458 919 442 919 457 919 440 920 439 920 456 920 438 921 437 921 454 921 449 922 448 922 465 922 463 923 447 923 462 923 461 924 445 924 460 924 443 925 442 925 459 925 457 926 441 926 456 926 455 927 439 927 454 927 450 928 449 928 466 928 453 929 437 929 452 929 464 930 448 930 463 930 446 931 445 931 462 931 475 932 460 932 474 932 473 933 458 933 472 933 456 934 455 934 471 934 454 935 453 935 469 935 465 936 464 936 480 936 478 937 463 937 477 937 476 938 461 938 475 938 459 939 458 939 474 939 472 940 457 940 471 940 470 941 455 941 469 941 466 942 465 942 481 942 468 943 453 943 467 943 479 944 464 944 478 944 462 945 461 945 477 945 475 946 474 946 8 946 6 947 473 947 5 947 4 948 471 948 3 948 2 949 469 949 1 949 480 950 479 950 13 950 478 951 477 951 11 951 476 952 475 952 9 952 7 953 474 953 6 953 5 954 472 954 4 954 3 955 470 955 2 955 481 956 480 956 14 956 1 957 468 957 0 957 479 958 478 958 12 958 477 959 476 959 10 959</p>
        </polylist>
      </mesh>
    </geometry>
  </library_geometries>
  <library_controllers/>
  <library_visual_scenes>
    <visual_scene id="Scene" name="Scene">
      <node id="Camera" name="Camera" type="NODE">
        <matrix sid="transform">0.6858805 -0.3173701 0.6548619 7.481132 0.7276338 0.3124686 -0.6106656 -6.50764 -0.01081678 0.8953432 0.4452454 5.343665 0 0 0 1</matrix>
        <instance_camera url="#Camera-camera"/>
      </node>
      <node id="Lamp" name="Lamp" type="NODE">
        <matrix sid="transform">-0.2908646 -0.7711008 0.5663932 4.076245 0.9551712 -0.1998834 0.2183912 1.005454 -0.05518906 0.6045247 0.7946723 5.903862 0 0 0 1</matrix>
        <instance_light url="#Lamp-light"/>
      </node>
      <node id="Sphere" name="Sphere" type="NODE">
        <matrix sid="transform">1 0 0 0 0 1 0 0 0 0 1 0 0 0 0 1</matrix>
        <instance_geometry url="#Sphere-mesh">
          <bind_material>
            <technique_common>
              <instance_material symbol="Material_001-material" target="#Material_001-material"/>
            </technique_common>
          </bind_material>
        </instance_geometry>
      </node>
    </visual_scene>
  </library_visual_scenes>
  <scene>
    <instance_visual_scene url="#Scene"/>
  </scene>
</COLLADA>