<?xml version="1.0" encoding="utf-8"?>
<COLLADA xmlns="http://www.collada.org/2005/11/COLLADASchema" version="1.4.1">
  <asset>
    <contributor>
      <author>Blender User</author>
      <authoring_tool>Blender 2.74.0 commit date:2015-03-31, commit time:13:39, hash:000dfc0</authoring_tool>
    </contributor>
    <created>2015-06-24T12:20:06</created>
    <modified>2015-06-24T12:20:06</modified>
    <unit name="meter" meter="1"/>
    <up_axis>Z_UP</up_axis>
  </asset>
  <library_cameras>
    <camera id="Camera-camera" name="Camera">
      <optics>
        <technique_common>
          <perspective>
            <xfov sid="xfov">49.13434</xfov>
            <aspect_ratio>1.777778</aspect_ratio>
            <znear sid="znear">0.1</znear>
            <zfar sid="zfar">100</zfar>
          </perspective>
        </technique_common>
      </optics>
      <extra>
        <technique profile="blender">
          <YF_dofdist>0</YF_dofdist>
          <shiftx>0</shiftx>
          <shifty>0</shifty>
        </technique>
      </extra>
    </camera>
    <camera id="Camera_001-camera" name="Camera.001">
      <optics>
        <technique_common>
          <perspective>
            <xfov sid="xfov">49.13434</xfov>
            <aspect_ratio>1.777778</aspect_ratio>
            <znear sid="znear">0.1</znear>
            <zfar sid="zfar">100</zfar>
          </perspective>
        </technique_common>
      </optics>
      <extra>
        <technique profile="blender">
          <YF_dofdist>0</YF_dofdist>
          <shiftx>0</shiftx>
          <shifty>0</shifty>
        </technique>
      </extra>
    </camera>
  </library_cameras>
  <library_lights>
    <light id="Lamp-light" name="Lamp">
      <technique_common>
        <point>
          <color sid="color">1 1 1</color>
          <constant_attenuation>1</constant_attenuation>
          <linear_attenuation>0</linear_attenuation>
          <quadratic_attenuation>0.00111109</quadratic_attenuation>
        </point>
      </technique_common>
      <extra>
        <technique profile="blender">
          <adapt_thresh>0.000999987</adapt_thresh>
          <area_shape>1</area_shape>
          <area_size>0.1</area_size>
          <area_sizey>0.1</area_sizey>
          <area_sizez>1</area_sizez>
          <atm_distance_factor>1</atm_distance_factor>
          <atm_extinction_factor>1</atm_extinction_factor>
          <atm_turbidity>2</atm_turbidity>
          <att1>0</att1>
          <att2>1</att2>
          <backscattered_light>1</backscattered_light>
          <bias>1</bias>
          <blue>1</blue>
          <buffers>1</buffers>
          <bufflag>0</bufflag>
          <bufsize>2880</bufsize>
          <buftype>2</buftype>
          <clipend>30.002</clipend>
          <clipsta>1.000799</clipsta>
          <compressthresh>0.04999995</compressthresh>
          <dist sid="blender_dist">29.99998</dist>
          <energy sid="blender_energy">1</energy>
          <falloff_type>2</falloff_type>
          <filtertype>0</filtertype>
          <flag>0</flag>
          <gamma sid="blender_gamma">1</gamma>
          <green>1</green>
          <halo_intensity sid="blnder_halo_intensity">1</halo_intensity>
          <horizon_brightness>1</horizon_brightness>
          <mode>8192</mode>
          <ray_samp>1</ray_samp>
          <ray_samp_method>1</ray_samp_method>
          <ray_samp_type>0</ray_samp_type>
          <ray_sampy>1</ray_sampy>
          <ray_sampz>1</ray_sampz>
          <red>1</red>
          <samp>3</samp>
          <shadhalostep>0</shadhalostep>
          <shadow_b sid="blender_shadow_b">0</shadow_b>
          <shadow_g sid="blender_shadow_g">0</shadow_g>
          <shadow_r sid="blender_shadow_r">0</shadow_r>
          <sky_colorspace>0</sky_colorspace>
          <sky_exposure>1</sky_exposure>
          <skyblendfac>1</skyblendfac>
          <skyblendtype>1</skyblendtype>
          <soft>3</soft>
          <spotblend>0.15</spotblend>
          <spotsize>75</spotsize>
          <spread>1</spread>
          <sun_brightness>1</sun_brightness>
          <sun_effect_type>0</sun_effect_type>
          <sun_intensity>1</sun_intensity>
          <sun_size>1</sun_size>
          <type>0</type>
        </technique>
      </extra>
    </light>
    <light id="Lamp_001-light" name="Lamp.001">
      <technique_common>
        <point>
          <color sid="color">1 1 1</color>
          <constant_attenuation>1</constant_attenuation>
          <linear_attenuation>0</linear_attenuation>
          <quadratic_attenuation>0.00111109</quadratic_attenuation>
        </point>
      </technique_common>
      <extra>
        <technique profile="blender">
          <adapt_thresh>9.99987e-4</adapt_thresh>
          <area_shape>1</area_shape>
          <area_size>0.1</area_size>
          <area_sizey>0.1</area_sizey>
          <area_sizez>1</area_sizez>
          <atm_distance_factor>1</atm_distance_factor>
          <atm_extinction_factor>1</atm_extinction_factor>
          <atm_turbidity>2</atm_turbidity>
          <att1>0</att1>
          <att2>1</att2>
          <backscattered_light>1</backscattered_light>
          <bias>1</bias>
          <blue>1</blue>
          <buffers>1</buffers>
          <bufflag>0</bufflag>
          <bufsize>2880</bufsize>
          <buftype>2</buftype>
          <clipend>30.002</clipend>
          <clipsta>1.000799</clipsta>
          <compressthresh>0.04999995</compressthresh>
          <dist sid="blender_dist">29.99998</dist>
          <energy sid="blender_energy">1</energy>
          <falloff_type>2</falloff_type>
          <filtertype>0</filtertype>
          <flag>0</flag>
          <gamma sid="blender_gamma">1</gamma>
          <green>1</green>
          <halo_intensity sid="blnder_halo_intensity">1</halo_intensity>
          <horizon_brightness>1</horizon_brightness>
          <mode>8192</mode>
          <ray_samp>1</ray_samp>
          <ray_samp_method>1</ray_samp_method>
          <ray_samp_type>0</ray_samp_type>
          <ray_sampy>1</ray_sampy>
          <ray_sampz>1</ray_sampz>
          <red>1</red>
          <samp>3</samp>
          <shadhalostep>0</shadhalostep>
          <shadow_b sid="blender_shadow_b">0</shadow_b>
          <shadow_g sid="blender_shadow_g">0</shadow_g>
          <shadow_r sid="blender_shadow_r">0</shadow_r>
          <sky_colorspace>0</sky_colorspace>
          <sky_exposure>1</sky_exposure>
          <skyblendfac>1</skyblendfac>
          <skyblendtype>1</skyblendtype>
          <soft>3</soft>
          <spotblend>0.15</spotblend>
          <spotsize>75</spotsize>
          <spread>1</spread>
          <sun_brightness>1</sun_brightness>
          <sun_effect_type>0</sun_effect_type>
          <sun_intensity>1</sun_intensity>
          <sun_size>1</sun_size>
          <type>0</type>
        </technique>
      </extra>
    </light>
  </library_lights>
  <library_images>
    <image id="_1403017_10200521111708243_2531910283606660523_n_jpg" name="_1403017_10200521111708243_2531910283606660523_n_jpg">
      <init_from>11403017_10200521111708243_2531910283606660523_n.jpg</init_from>
    </image>
  </library_images>
  <library_effects>
    <effect id="mymaterial-effect">
      <profile_COMMON>
        <technique sid="common">
          <phong>
            <emission>
              <color sid="emission">0 0 0 1</color>
            </emission>
            <ambient>
              <color sid="ambient">0 0 0 1</color>
            </ambient>
            <diffuse>
              <color sid="diffuse">1 1 1 1</color>
            </diffuse>
            <specular>
              <color sid="specular">0.25 0.25 0.25 1</color>
            </specular>
            <shininess>
              <float sid="shininess">1</float>
            </shininess>
            <index_of_refraction>
              <float sid="index_of_refraction">1</float>
            </index_of_refraction>
          </phong>
        </technique>
      </profile_COMMON>
    </effect>
    <effect id="Material_001-effect">
      <profile_COMMON>
        <technique sid="common">
          <phong>
            <emission>
              <color sid="emission">0 0 0 1</color>
            </emission>
            <ambient>
              <color sid="ambient">0 0 0 1</color>
            </ambient>
            <diffuse>
              <color sid="diffuse">0 0 0 1</color>
            </diffuse>
            <specular>
              <color sid="specular">0.25 0.25 0.25 1</color>
            </specular>
            <shininess>
              <float sid="shininess">50</float>
            </shininess>
            <index_of_refraction>
              <float sid="index_of_refraction">1</float>
            </index_of_refraction>
          </phong>
        </technique>
      </profile_COMMON>
    </effect>
    <effect id="Material_003-effect">
      <profile_COMMON>
        <newparam sid="_1403017_10200521111708243_2531910283606660523_n_jpg-surface">
          <surface type="2D">
            <init_from>_1403017_10200521111708243_2531910283606660523_n_jpg</init_from>
          </surface>
        </newparam>
        <newparam sid="_1403017_10200521111708243_2531910283606660523_n_jpg-sampler">
          <sampler2D>
            <source>_1403017_10200521111708243_2531910283606660523_n_jpg-surface</source>
          </sampler2D>
        </newparam>
        <technique sid="common">
          <phong>
            <emission>
              <color sid="emission">0 0 0 1</color>
            </emission>
            <ambient>
              <color sid="ambient">0 0 0 1</color>
            </ambient>
            <diffuse>
              <texture texture="_1403017_10200521111708243_2531910283606660523_n_jpg-sampler" texcoord="UVMap"/>
            </diffuse>
            <specular>
              <color sid="specular">0.25 0.25 0.25 1</color>
            </specular>
            <shininess>
              <float sid="shininess">50</float>
            </shininess>
            <index_of_refraction>
              <float sid="index_of_refraction">1</float>
            </index_of_refraction>
          </phong>
        </technique>
      </profile_COMMON>
    </effect>
  </library_effects>
  <library_materials>
    <material id="mymaterial-material" name="mymaterial">
      <instance_effect url="#mymaterial-effect"/>
    </material>
    <material id="Material_001-material" name="Material_001">
      <instance_effect url="#Material_001-effect"/>
    </material>
    <material id="Material_003-material" name="Material_003">
      <instance_effect url="#Material_003-effect"/>
    </material>
  </library_materials>
  <library_geometries>
    <geometry id="Bin-mesh" name="Bin">
      <mesh>
        <source id="Bin-mesh-positions">
          <float_array id="Bin-mesh-positions-array" count="84">609.6 140 0 609.6 150 0 609.6 150 900 609.6 140 900 0 140 0 0 150 0 0 140 900 0 150 900 152.4 150 750 152.4 150 150 457.2 150 750 457.2 150 150 457.2 140 150 152.4 140 150 152.4 140 750 457.2 140 750 447.2 140 740 162.4 140 740 162.4 140 160 447.2 140 160 457.2 0 750 457.2 0 150 152.4 0 750 152.4 0 150 447.2 10.00001 160 447.2 10.00001 740 162.4 10.00001 740 162.4 10.00001 160</float_array>
          <technique_common>
            <accessor source="#Bin-mesh-positions-array" count="28" stride="3">
              <param name="X" type="float"/>
              <param name="Y" type="float"/>
              <param name="Z" type="float"/>
            </accessor>
          </technique_common>
        </source>
        <source id="Bin-mesh-normals">
          <float_array id="Bin-mesh-normals-array" count="180">1 0 0 1 0 0 0 0 -1 0 0 -1 -1 0 0 -1 0 0 0 0 1 0 0 1 0 1 0 0 1 0 0 1 0 0 1 0 0 1 0 0 1 0 0 1 0 0 1 0 0 -1 0 0 -1 0 0 -1 0 0 -1 0 0 -1 0 0 -1 0 0 -1 0 0 -1 0 1 0 0 1 0 0 -1 0 0 -1 0 0 0 0 -1 0 0 -1 0 0 1 0 0 1 0 1 0 0 1 0 0 1 0 0 1 0 0 1 0 0 1 0 0 1 0 0 1 0 1 0 0 1 0 0 0 0 1 0 0 1 -1 0 0 -1 0 0 0 0 -1 0 0 -1 0 -1 0 0 -1 0 -1 0 0 -1 0 0 0 0 -1 0 0 -1 1 0 0 1 0 0 0 0 1 0 0 1 0 1 0 0 1 0</float_array>
          <technique_common>
            <accessor source="#Bin-mesh-normals-array" count="60" stride="3">
              <param name="X" type="float"/>
              <param name="Y" type="float"/>
              <param name="Z" type="float"/>
            </accessor>
          </technique_common>
        </source>
        <source id="Bin-mesh-map">
          <float_array id="Bin-mesh-map-array" count="360">0 0 0 0 0 0 0 0 0 0 0 0 0 0 0 0 0 0 0 0 0 0 0 0 0 0 0 0 0 0 0 0 0 0 0 0 0 0 0 0 0 0 0 0 0 0 0 0 0 0 0 0 0 0 0 0 0 0 0 0 0 0 0 0 0 0 0 0 0 0 0 0 0 0 0 0 0 0 0 0 0 0 0 0 0 0 0 0 0 0 0 0 0 0 0 0 0 0 0 0 0 0 0 0 0 0 0 0 0 0 0 0 0 0 0 0 0 0 0 0 0 0 0 0 0 0 0 0 0 0 0 0 0 0 0 0 0 0 0 0 0 0 0 0 0 0 0 0 0 0 0 0 0 0 0 0 0 0 0 0 0 0 0 0 0 0 0 0 0 0 0 0 0 0 0 0 0 0 0 0 0 0 0 0 0 0 0 0 0 0 0 0 0 0 0 0 0 0 0 0 0 0 0 0 0 0 0 0 0 0 0 0 0 0 0 0 0 0 0 0 0 0 0 0 0 0 0 0 0 0 0 0 0 0 0 0 0 0 0 0 0 0 0 0 0 0 0 0 0 0 0 0 0 0 0 0 0 0 0 0 0 0 0 0 0 0 0 0 0 0 0 0 0 0 0 0 0 0 0 0 0 0 0 0 0 0 0 0 0 0 0 0 0 0 0 0 0 0 0 0 0 0 0 0 0 0 0 0 0 0 0 0 0 0 0 0 0 0 0 0 0 0 0 0 0 0 0 0 0 0 0 0 0 0 0 0 0 0 0 0 0 0 0 0 0 0 0 0 7.00895e-5 -2.26354e-4 1.000814 -2.69359e-4 0.9999297 1.00007 -0.002021253 0.9997736 7.00895e-5 -2.26354e-4 0.9999297 1.00007</float_array>
          <technique_common>
            <accessor source="#Bin-mesh-map-array" count="180" stride="2">
              <param name="S" type="float"/>
              <param name="T" type="float"/>
            </accessor>
          </technique_common>
        </source>
        <vertices id="Bin-mesh-vertices">
          <input semantic="POSITION" source="#Bin-mesh-positions"/>
        </vertices>
        <polylist material="mymaterial-material" count="26">
          <input semantic="VERTEX" source="#Bin-mesh-vertices" offset="0"/>
          <input semantic="NORMAL" source="#Bin-mesh-normals" offset="1"/>
          <input semantic="TEXCOORD" source="#Bin-mesh-map" offset="2" set="0"/>
          <vcount>3 3 3 3 3 3 3 3 3 3 3 3 3 3 3 3 3 3 3 3 3 3 3 3 3 3 </vcount>
          <p>0 0 0 1 0 1 2 0 2 3 1 3 0 1 4 2 1 5 4 2 6 5 2 7 1 2 8 0 3 9 4 3 10 1 3 11 6 4 12 7 4 13 5 4 14 4 5 15 6 5 16 5 5 17 3 6 18 2 6 19 7 6 20 6 7 21 3 7 22 7 7 23 8 8 24 9 8 25 5 8 26 7 9 27 8 9 28 5 9 29 10 10 30 8 10 31 7 10 32 2 11 33 10 11 34 7 11 35 11 12 36 10 12 37 2 12 38 1 13 39 11 13 40 2 13 41 9 14 42 11 14 43 1 14 44 5 15 45 9 15 46 1 15 47 3 16 48 12 16 49 0 16 50 4 17 51 0 17 52 12 17 53 13 18 54 4 18 55 12 18 56 6 19 57 4 19 58 13 19 59 14 20 60 6 20 61 13 20 62 3 21 63 6 21 64 14 21 65 15 22 66 3 22 67 14 22 68 12 23 69 3 23 70 15 23 71 8 24 72 14 24 73 13 24 74 9 25 75 8 25 76 13 25 77</p>
        </polylist>
        <polylist material="Material_001-material" count="32">
          <input semantic="VERTEX" source="#Bin-mesh-vertices" offset="0"/>
          <input semantic="NORMAL" source="#Bin-mesh-normals" offset="1"/>
          <input semantic="TEXCOORD" source="#Bin-mesh-map" offset="2" set="0"/>
          <vcount>3 3 3 3 3 3 3 3 3 3 3 3 3 3 3 3 3 3 3 3 3 3 3 3 3 3 3 3 3 3 3 3 </vcount>
          <p>11 26 78 12 26 79 15 26 80 10 27 81 11 27 82 15 27 83 10 28 84 15 28 85 14 28 86 8 29 87 10 29 88 14 29 89 9 30 90 13 30 91 12 30 92 11 31 93 9 31 94 12 31 95 12 32 96 16 32 97 15 32 98 14 33 99 15 33 100 16 33 101 17 34 102 14 34 103 16 34 104 13 35 105 14 35 106 17 35 107 18 36 108 13 36 109 17 36 110 12 37 111 13 37 112 18 37 113 19 38 114 12 38 115 18 38 116 16 39 117 12 39 118 19 39 119 15 40 120 20 40 121 21 40 122 12 41 123 15 41 124 21 41 125 14 42 126 22 42 127 20 42 128 15 43 129 14 43 130 20 43 131 13 44 132 23 44 133 22 44 134 14 45 135 13 45 136 22 45 137 12 46 138 21 46 139 23 46 140 13 47 141 12 47 142 23 47 143 20 48 144 22 48 145 23 48 146 21 49 147 20 49 148 23 49 149 19 50 150 24 50 151 25 50 152 16 51 153 19 51 154 25 51 155 16 52 156 25 52 157 26 52 158 17 53 159 16 53 160 26 53 161 17 54 162 26 54 163 27 54 164 18 55 165 17 55 166 27 55 167 18 56 168 27 56 169 24 56 170 19 57 171 18 57 172 24 57 173</p>
        </polylist>
        <polylist material="Material_003-material" count="2">
          <input semantic="VERTEX" source="#Bin-mesh-vertices" offset="0"/>
          <input semantic="NORMAL" source="#Bin-mesh-normals" offset="1"/>
          <input semantic="TEXCOORD" source="#Bin-mesh-map" offset="2" set="0"/>
          <vcount>3 3 </vcount>
          <p>24 58 174 27 58 175 26 58 176 25 59 177 24 59 178 26 59 179</p>
        </polylist>
      </mesh>
    </geometry>
  </library_geometries>
  <library_controllers/>
  <library_visual_scenes>
    <visual_scene id="Scene" name="Scene">
      <node id="Camera" name="Camera" type="NODE">
        <matrix sid="transform">-0.4051993 -0.6361333 0.6566185 3.461368 0.2660992 0.6050614 0.7503945 2.912464 -0.8746455 0.478785 -0.07589592 -0.05101806 0 0 0 1</matrix>
        <instance_camera url="#Camera-camera"/>
      </node>
      <node id="Lamp" name="Lamp" type="NODE">
        <matrix sid="transform">-0.2908646 -0.7711008 0.5663932 4.076245 0.9551712 -0.1998834 0.2183912 1.005454 -0.05518906 0.6045247 0.7946723 5.903862 0 0 0 1</matrix>
        <instance_light url="#Lamp-light"/>
      </node>
      <node id="Camera_001" name="Camera_001" type="NODE">
        <matrix sid="transform">0.6858806 -0.3173699 0.6548619 7.481132 0.7276337 0.3124684 -0.6106657 -6.50764 -0.01081674 0.8953432 0.4452451 5.343665 0 0 0 1</matrix>
        <instance_camera url="#Camera_001-camera"/>
      </node>
      <node id="Lamp_001" name="Lamp_001" type="NODE">
        <matrix sid="transform">-0.2908644 -0.7711007 0.5663933 1.422779 0.9551712 -0.1998831 0.2183911 1.569389 -0.0551891 0.6045247 0.7946723 0.6053607 0 0 0 1</matrix>
        <instance_light url="#Lamp_001-light"/>
      </node>
      <node id="node0" name="node0" type="NODE">
        <matrix sid="transform">1.10525e-6 8.81141e-6 -0.001973585 2.38439 -8.56452e-6 0.001973564 8.80655e-6 -0.7330697 0.001973584 8.55949e-6 1.14347e-6 0.02166459 0 0 0 1</matrix>
        <instance_geometry url="#Bin-mesh">
          <bind_material>
            <technique_common>
              <instance_material symbol="mymaterial-material" target="#mymaterial-material">
                <bind_vertex_input semantic="UVMap" input_semantic="TEXCOORD" input_set="0"/>
              </instance_material>
              <instance_material symbol="Material_001-material" target="#Material_001-material">
                <bind_vertex_input semantic="UVMap" input_semantic="TEXCOORD" input_set="0"/>
              </instance_material>
              <instance_material symbol="Material_003-material" target="#Material_003-material">
                <bind_vertex_input semantic="UVMap" input_semantic="TEXCOORD" input_set="0"/>
              </instance_material>
            </technique_common>
          </bind_material>
        </instance_geometry>
      </node>
    </visual_scene>
  </library_visual_scenes>
  <scene>
    <instance_visual_scene url="#Scene"/>
  </scene>
</COLLADA>