<?xml version="1.0" encoding="UTF-8" standalone="no" ?>
<COLLADA xmlns="http://www.collada.org/2005/11/COLLADASchema" version="1.4.1">
    <asset>
        <contributor>
            <authoring_tool>SketchUp 15.3.331</authoring_tool>
        </contributor>
        <created>2015-05-31T06:02:25Z</created>
        <modified>2015-05-31T06:02:25Z</modified>
        <unit meter="0.0254" name="inch" />
        <up_axis>Z_UP</up_axis>
    </asset>
    <library_visual_scenes>
        <visual_scene id="ID1">
            <node name="SketchUp">
                <instance_geometry url="#ID2">
                    <bind_material>
                        <technique_common>
                            <instance_material symbol="Material2" target="#ID4">
                                <bind_vertex_input semantic="UVSET0" input_semantic="TEXCOORD" input_set="0" />
                            </instance_material>
                            <instance_material symbol="Material3" target="#ID8">
                                <bind_vertex_input semantic="UVSET0" input_semantic="TEXCOORD" input_set="0" />
                            </instance_material>
                        </technique_common>
                    </bind_material>
                </instance_geometry>
                <instance_geometry url="#ID12">
                    <bind_material>
                        <technique_common>
                            <instance_material symbol="Material2" target="#ID4">
                                <bind_vertex_input semantic="UVSET0" input_semantic="TEXCOORD" input_set="0" />
                            </instance_material>
                        </technique_common>
                    </bind_material>
                </instance_geometry>
            </node>
        </visual_scene>
    </library_visual_scenes>
    <library_geometries>
        <geometry id="ID2">
            <mesh>
                <source id="ID5">
                    <float_array id="ID10" count="156">394.8819 359.8425 -197.2441 0 -353.937 -197.2441 0 359.8425 -197.2441 394.8819 -353.937 -197.2441 394.8819 -353.937 -197.2441 394.8819 359.8425 -197.2441 0 -353.937 -197.2441 0 359.8425 -197.2441 0 359.8425 0.7874016 394.8819 359.8425 -197.2441 0 359.8425 -197.2441 789.7638 359.8425 -117.3228 789.7638 359.8425 0.7874016 789.7638 359.8425 0.7874016 0 359.8425 0.7874016 789.7638 359.8425 -117.3228 394.8819 359.8425 -197.2441 0 359.8425 -197.2441 394.8819 359.8425 -197.2441 789.7638 -353.937 -117.3228 394.8819 -353.937 -197.2441 789.7638 359.8425 -117.3228 789.7638 359.8425 -117.3228 394.8819 359.8425 -197.2441 789.7638 -353.937 -117.3228 394.8819 -353.937 -197.2441 789.7638 -353.937 -117.3228 0 -353.937 -197.2441 394.8819 -353.937 -197.2441 0 -353.937 0.7874016 789.7638 -353.937 0.7874016 789.7638 -353.937 0.7874016 789.7638 -353.937 -117.3228 0 -353.937 0.7874016 0 -353.937 -197.2441 394.8819 -353.937 -197.2441 0 359.8425 0.7874016 0 -353.937 -197.2441 0 -353.937 0.7874016 0 359.8425 -197.2441 0 359.8425 -197.2441 0 359.8425 0.7874016 0 -353.937 -197.2441 0 -353.937 0.7874016 789.7638 359.8425 -117.3228 789.7638 -353.937 0.7874016 789.7638 -353.937 -117.3228 789.7638 359.8425 0.7874016 789.7638 359.8425 0.7874016 789.7638 359.8425 -117.3228 789.7638 -353.937 0.7874016 789.7638 -353.937 -117.3228</float_array>
                    <technique_common>
                        <accessor count="52" source="#ID10" stride="3">
                            <param name="X" type="float" />
                            <param name="Y" type="float" />
                            <param name="Z" type="float" />
                        </accessor>
                    </technique_common>
                </source>
                <source id="ID6">
                    <float_array id="ID11" count="156">4.12418e-014 2.281606e-014 -1 4.12418e-014 2.281606e-014 -1 4.12418e-014 2.281606e-014 -1 4.12418e-014 2.281606e-014 -1 -4.12418e-014 -2.281606e-014 1 -4.12418e-014 -2.281606e-014 1 -4.12418e-014 -2.281606e-014 1 -4.12418e-014 -2.281606e-014 1 -0 1 -0 -0 1 -0 -0 1 -0 -0 1 -0 -0 1 -0 0 -1 0 0 -1 0 0 -1 0 0 -1 0 0 -1 0 0.1983707 -1.442529e-015 -0.9801271 0.1983707 -1.442529e-015 -0.9801271 0.1983707 -1.442529e-015 -0.9801271 0.1983707 -1.442529e-015 -0.9801271 -0.1983707 1.442529e-015 0.9801271 -0.1983707 1.442529e-015 0.9801271 -0.1983707 1.442529e-015 0.9801271 -0.1983707 1.442529e-015 0.9801271 0 -1 0 0 -1 0 0 -1 0 0 -1 0 0 -1 0 -0 1 -0 -0 1 -0 -0 1 -0 -0 1 -0 -0 1 -0 -1 0 0 -1 0 0 -1 0 0 -1 0 0 1 -0 -0 1 -0 -0 1 -0 -0 1 -0 -0 1 1.592744e-016 -3.850194e-015 1 1.592744e-016 -3.850194e-015 1 1.592744e-016 -3.850194e-015 1 1.592744e-016 -3.850194e-015 -1 -1.592744e-016 3.850194e-015 -1 -1.592744e-016 3.850194e-015 -1 -1.592744e-016 3.850194e-015 -1 -1.592744e-016 3.850194e-015</float_array>
                    <technique_common>
                        <accessor count="52" source="#ID11" stride="3">
                            <param name="X" type="float" />
                            <param name="Y" type="float" />
                            <param name="Z" type="float" />
                        </accessor>
                    </technique_common>
                </source>
                <vertices id="ID7">
                    <input semantic="POSITION" source="#ID5" />
                    <input semantic="NORMAL" source="#ID6" />
                </vertices>
                <triangles count="14" material="Material2">
                    <input offset="0" semantic="VERTEX" source="#ID7" />
                    <p>0 1 2 1 0 3 8 9 10 9 8 11 11 8 12 18 19 20 19 18 21 26 27 28 27 26 29 29 26 30 36 37 38 37 36 39 44 45 46 45 44 47</p>
                </triangles>
                <triangles count="14" material="Material3">
                    <input offset="0" semantic="VERTEX" source="#ID7" />
                    <p>4 5 6 7 6 5 13 14 15 15 14 16 17 16 14 22 23 24 25 24 23 31 32 33 33 32 34 35 34 32 40 41 42 43 42 41 48 49 50 51 50 49</p>
                </triangles>
            </mesh>
        </geometry>
        <geometry id="ID12">
            <mesh>
                <source id="ID13">
                    <float_array id="ID16" count="39">789.7638 359.8425 -117.3228 427.8592 359.8425 -190.9379 394.8819 359.8425 -197.2441 460.824 359.8425 -184.5673 493.7764 359.8425 -178.1323 526.7161 359.8425 -171.6329 559.6431 359.8425 -165.0692 592.5571 359.8425 -158.4411 625.4582 359.8425 -151.7487 658.3461 359.8425 -144.992 691.2207 359.8425 -138.171 724.082 359.8425 -131.2858 756.9297 359.8425 -124.3364</float_array>
                    <technique_common>
                        <accessor count="13" source="#ID16" stride="3">
                            <param name="X" type="float" />
                            <param name="Y" type="float" />
                            <param name="Z" type="float" />
                        </accessor>
                    </technique_common>
                </source>
                <source id="ID14">
                    <float_array id="ID17" count="39">-0 1 -0 -0 1 -0 -0 1 -0 -0 1 -0 -0 1 -0 -0 1 -0 -0 1 -0 -0 1 -0 -0 1 -0 -0 1 -0 -0 1 -0 -0 1 -0 -0 1 -0</float_array>
                    <technique_common>
                        <accessor count="13" source="#ID17" stride="3">
                            <param name="X" type="float" />
                            <param name="Y" type="float" />
                            <param name="Z" type="float" />
                        </accessor>
                    </technique_common>
                </source>
                <vertices id="ID15">
                    <input semantic="POSITION" source="#ID13" />
                    <input semantic="NORMAL" source="#ID14" />
                </vertices>
                <triangles count="11" material="Material2">
                    <input offset="0" semantic="VERTEX" source="#ID15" />
                    <p>0 1 2 1 0 3 3 0 4 4 0 5 5 0 6 6 0 7 7 0 8 8 0 9 9 0 10 10 0 11 11 0 12</p>
                </triangles>
            </mesh>
        </geometry>
    </library_geometries>
    <library_materials>
        <material id="ID4" name="material">
            <instance_effect url="#ID3" />
        </material>
        <material id="ID8" name="Color_H07">
            <instance_effect url="#ID9" />
        </material>
    </library_materials>
    <library_effects>
        <effect id="ID3">
            <profile_COMMON>
                <technique sid="COMMON">
                    <lambert>
                        <diffuse>
                            <color>1 1 1 1</color>
                        </diffuse>
                    </lambert>
                </technique>
            </profile_COMMON>
        </effect>
        <effect id="ID9">
            <profile_COMMON>
                <technique sid="COMMON">
                    <lambert>
                        <diffuse>
                            <color>0.1568627 0.8 0.8 1</color>
                        </diffuse>
                    </lambert>
                </technique>
            </profile_COMMON>
        </effect>
    </library_effects>
    <scene>
        <instance_visual_scene url="#ID1" />
    </scene>
</COLLADA>
